{
    "status": true,
    "items": [
        {
            "modified": {
                "time": "2025-01-01T22:11:05.000Z"
            },
            "_id": "ce4c4d595b49a33ce5f485e5672dc2ea",
            "name": "Tr\u00f2 Ch\u01a1i L\u1ecd Lem",
            "slug": "tro-choi-lo-lem",
            "origin_name": "Cinderella Game",
            "poster_url": "https:\/\/phimimg.com\/upload\/vod\/20241204-1\/cbc5586ae124c0d7f5daa89cdc26d3db.jpg",
            "thumb_url": "https:\/\/phimimg.com\/upload\/vod\/20241204-1\/6ab7b15319e94b66e1aa093644da8a31.jpg",
            "year": 2024
        },
        {
            "modified": {
                "time": "2025-01-01T22:10:32.000Z"
            },
            "_id": "4e5faa13470ff88efde9f0ed6a1ed316",
            "name": "Tr\u00e1i Tim B\u1ea5t H\u1ea1nh",
            "slug": "trai-tim-bat-hanh",
            "origin_name": "Unhappy Heart",
            "poster_url": "https:\/\/phimimg.com\/upload\/vod\/20241221-1\/37ea177d984d00cb42edd0f8b07f26de.jpg",
            "thumb_url": "https:\/\/phimimg.com\/upload\/vod\/20241221-1\/d6376387139e107b7ebeeb51cee8bf2d.jpg",
            "year": 2024
        },
        {
            "modified": {
                "time": "2025-01-01T22:10:00.000Z"
            },
            "_id": "6f6c046e7b9315c34b9363845959b8d7",
            "name": "Quy Tr\u1ea1o",
            "slug": "quy-trao",
            "origin_name": "The Way Home",
            "poster_url": "https:\/\/phimimg.com\/upload\/vod\/20241225-1\/94ffa91b95490524a21765681d4d27c9.jpg",
            "thumb_url": "https:\/\/phimimg.com\/upload\/vod\/20241225-1\/11e1003cdebbfe2505c0b3d2a542e808.jpg",
            "year": 2024
        },
        {
            "modified": {
                "time": "2025-01-01T22:08:31.000Z"
            },
            "_id": "803815bbe0f321b3e4476f9af5fbe16f",
            "name": "Qu\u00fd C\u00f4 Seon Ju Ph\u1ee5c Th\u00f9",
            "slug": "quy-co-seon-ju-phuc-thu",
            "origin_name": "Desperate Mrs. Seon Ju",
            "poster_url": "https:\/\/phimimg.com\/upload\/vod\/20241120-1\/05e935ee1659e79b7c50e9c8346aa2b1.jpg",
            "thumb_url": "https:\/\/phimimg.com\/upload\/vod\/20241120-1\/0d48bf417de0adb32b6812145b0ea317.jpg",
            "year": 2024
        },
        {
            "modified": {
                "time": "2025-01-01T22:07:51.000Z"
            },
            "_id": "27ab2e099af3df31bb3a67cece587ffe",
            "name": "Ghi Ch\u00e9p K\u1ef3 Qu\u00e1i",
            "slug": "ghi-chep-ky-quai",
            "origin_name": "Strange Notes",
            "poster_url": "https:\/\/phimimg.com\/upload\/vod\/20241227-1\/42c6da8d886598bc3afa0b12b358d2fc.jpg",
            "thumb_url": "https:\/\/phimimg.com\/upload\/vod\/20241227-1\/c2ddee27ecc51d6d1ba6c111a09701c5.jpg",
            "year": 2024
        },
        {
            "modified": {
                "time": "2025-01-01T22:06:51.000Z"
            },
            "_id": "c1aa0aa8162b681633fe3895c05d3b0e",
            "name": "\u0110\u00f4ng Ch\u00ed",
            "slug": "dong-chi",
            "origin_name": "Love Song In Winter",
            "poster_url": "https:\/\/phimimg.com\/upload\/vod\/20241220-1\/2e20467da2cd5927695d5011ead6562a.jpg",
            "thumb_url": "https:\/\/phimimg.com\/upload\/vod\/20241220-1\/2c45846333ed2f9055a71036beb47938.jpg",
            "year": 2024
        },
        {
            "modified": {
                "time": "2025-01-01T22:05:34.000Z"
            },
            "_id": "1101c92ba65fb18468e246180daafb5a",
            "name": "\u0110\u1ea1i Ph\u1ee5ng \u0110\u1ea3 Canh Nh\u00e2n",
            "slug": "dai-phung-da-canh-nhan",
            "origin_name": "Guardians Of The Dafeng",
            "poster_url": "https:\/\/phimimg.com\/upload\/vod\/20241228-1\/4e4de1aba500132bbaec6f07035fd2c5.jpg",
            "thumb_url": "https:\/\/phimimg.com\/upload\/vod\/20241228-1\/5bca87d4461855cdfce570faadfadb94.jpg",
            "year": 2024
        },
        {
            "modified": {
                "time": "2025-01-01T22:04:39.000Z"
            },
            "_id": "009bd2262ae5a8afab700b5bc96b157a",
            "name": "Chuy\u1ec7n T\u00ecnh Trong R\u1eebng M\u01b0a",
            "slug": "chuyen-tinh-trong-rung-mua",
            "origin_name": "Rainforest Passions",
            "poster_url": "https:\/\/phimimg.com\/upload\/vod\/20241231-1\/88787d54f2cc5213f51f780ef45c4b21.jpg",
            "thumb_url": "https:\/\/phimimg.com\/upload\/vod\/20241231-1\/24e539d2d6ed9b44c22c96d26d86cf03.jpg",
            "year": 2024
        },
        {
            "modified": {
                "time": "2025-01-01T22:03:37.000Z"
            },
            "_id": "296add4760393dc63707e407affcbc84",
            "name": "Ch\u00fang Ta H\u00e3y K\u1ebft H\u00f4n Nh\u00e9",
            "slug": "chung-ta-hay-ket-hon-nhe",
            "origin_name": "My Merry Marriage",
            "poster_url": "https:\/\/phimimg.com\/upload\/vod\/20241009-1\/5f764cfa77ce1266b660a762e1291a4c.jpg",
            "thumb_url": "https:\/\/phimimg.com\/upload\/vod\/20241009-1\/dbefbe95135961f8c5435bfcb34c369d.jpg",
            "year": 2024
        },
        {
            "modified": {
                "time": "2025-01-01T21:51:45.000Z"
            },
            "_id": "dea279307a9e8db9a1f426e4d0d4886d",
            "name": "Ch\u00e0ng R\u1ec3 T\u00e0i Ba",
            "slug": "chang-re-tai-ba",
            "origin_name": "The Best Man",
            "poster_url": "https:\/\/phimimg.com\/upload\/vod\/20241220-1\/5a4326cc97758344d664e5245f215a4b.jpg",
            "thumb_url": "https:\/\/phimimg.com\/upload\/vod\/20241220-1\/0f4aee0324a7960cb554c10272ef5932.jpg",
            "year": 2024
        }
    ],
    "pagination": {
        "totalItems": 20604,
        "totalItemsPerPage": 10,
        "currentPage": 1,
        "totalPages": 2061
    }
}