{
    "status": true,
    "items": [
        {
            "modified": {
                "time": "2024-11-04T08:36:33.000Z"
            },
            "_id": "c2a71acc0925c43163b18d7d2c7877aa",
            "name": "G\u00e1i Ng\u00e0n \u0110\u00f4 (Ph\u1ea7n 2)",
            "slug": "gai-ngan-do-phan-2",
            "origin_name": "Thousand Dollar Girl (Season 2)",
            "poster_url": "https://phimimg.com/upload/vod/20241104-1/4dcd688e6f089d046327b79a269896b6.jpg",
            "thumb_url": "https://phimimg.com/upload/vod/20241104-1/c327a6bb70115589eea7ec830d343024.jpg",
            "year": 2022
        },
        {
            "modified": {
                "time": "2024-11-04T08:32:12.000Z"
            },
            "_id": "598e989a5706e1ab5cea5e65598d2125",
            "name": "G\u00e1i Ng\u00e0n \u0110\u00f4 (Ph\u1ea7n 1)",
            "slug": "gai-ngan-do-phan-1",
            "origin_name": "Thousand Dollar Girl (Season 1)",
            "poster_url": "https://phimimg.com/upload/vod/20241104-1/30a1d87e388ac1373961859ce1ad5e25.jpg",
            "thumb_url": "https://phimimg.com/upload/vod/20241104-1/23d03162c7040faea47ee7d0d66f998f.jpg",
            "year": 2020
        },
        {
            "modified": {
                "time": "2024-11-04T08:22:52.000Z"
            },
            "_id": "6fcbe90edddbc8bc99ec9fb4960ef0b9",
            "name": "C\u00f4 Gi\u1eef Tr\u1ebb Xinh \u0110\u1eb9p",
            "slug": "co-giu-tre-xinh-dep",
            "origin_name": "Babysitter",
            "poster_url": "https://phimimg.com/upload/vod/20241104-1/3bec867774f36d6c97fb42925109ae61.jpg",
            "thumb_url": "https://phimimg.com/upload/vod/20241104-1/a3a64ab1cf3d4390d371943b7cb07a45.jpg",
            "year": 2016
        },
        {
            "modified": {
                "time": "2024-11-04T08:19:40.000Z"
            },
            "_id": "4e1c697c58ace2a05144ff1ed5e65528",
            "name": "Con S\u1ed1 B\u00ed M\u1eadt",
            "slug": "con-so-bi-mat",
            "origin_name": "Numbers",
            "poster_url": "https://phimimg.com/upload/vod/20241104-1/9f794009ef42c23f1a1d8b384be1b871.jpg",
            "thumb_url": "https://phimimg.com/upload/vod/20241104-1/418dbdc9b2cdcec794157fd98e02709a.jpg",
            "year": 2023
        },
        {
            "modified": {
                "time": "2024-11-04T08:16:28.000Z"
            },
            "_id": "b80249f42c48c29edbc0c86465bbaddc",
            "name": "Bi\u1ec7t Th\u1ef1 \u0110\u00e8n L\u1ed3ng",
            "slug": "biet-thu-den-long",
            "origin_name": "Red Lantern Villa",
            "poster_url": "https://phimimg.com/upload/vod/20241104-1/3d3ea933349b703e7beb7a70e9954170.jpg",
            "thumb_url": "https://phimimg.com/upload/vod/20241104-1/117d19ff6065935660e57cdde0b497f7.jpg",
            "year": 2022
        },
        {
            "modified": {
                "time": "2024-11-04T08:10:38.000Z"
            },
            "_id": "009b43fb969ff1c89f0a919d33b70ecf",
            "name": "M\u1ed9ng \u01af\u1edbc T\u01b0\u01a1ng Lai",
            "slug": "mong-uoc-tuong-lai",
            "origin_name": "Future Dreams",
            "poster_url": "https://phimimg.com/upload/vod/20241104-1/b112d115451167ebe7b83c39f81b462e.jpg",
            "thumb_url": "https://phimimg.com/upload/vod/20241104-1/28869d64ac0c69fb131dfab53098e0ec.jpg",
            "year": 2023
        },
        {
            "modified": {
                "time": "2024-11-04T08:03:15.000Z"
            },
            "_id": "9ec53bd19dd81ddd33912cf4003aa035",
            "name": "B\u00ean Nhau Tr\u1ecdn \u0110\u1eddi",
            "slug": "ben-nhau-tron-doi",
            "origin_name": "My Sunshine",
            "poster_url": "https://phimimg.com/upload/vod/20241104-1/99ea04594f93b4642366f2ae9c62aa54.jpg",
            "thumb_url": "https://phimimg.com/upload/vod/20241104-1/37c5540900f8c28dda103539ac52a2e7.jpg",
            "year": 2015
        },
        {
            "modified": {
                "time": "2024-11-04T08:00:26.000Z"
            },
            "_id": "48fb20ee25f8ec60949e66e5ebb46600",
            "name": "Ng\u01b0\u1eddi T\u00ecnh \u00c1nh Tr\u0103ng",
            "slug": "nguoi-tinh-anh-trang",
            "origin_name": "Moon Lovers",
            "poster_url": "https://phimimg.com/upload/vod/20241104-1/bb8ba369aec7f3659d6f59fc35db57e2.jpg",
            "thumb_url": "https://phimimg.com/upload/vod/20241104-1/1287f47c7f85964d6a9904927c63d91a.jpg",
            "year": 2016
        },
        {
            "modified": {
                "time": "2024-11-04T07:57:31.000Z"
            },
            "_id": "947f1a3a5122ba00b91e95a516295359",
            "name": "M\u1eadt Danh Rocker",
            "slug": "mat-danh-rocker",
            "origin_name": "Codename Rocker",
            "poster_url": "https://phimimg.com/upload/vod/20241104-1/ba8c34d81e974d1c87b86795e9036a8a.jpg",
            "thumb_url": "https://phimimg.com/upload/vod/20241104-1/bcafe56bd6c905ccc220056ed2185e34.jpg",
            "year": 2017
        },
        {
            "modified": {
                "time": "2024-11-04T07:53:23.000Z"
            },
            "_id": "476d4d316a8d5e9747eda32700173553",
            "name": "Nhi\u1ec7t Huy\u1ebft Thi\u1ebfu Ni\u00ean",
            "slug": "nhiet-huyet-thieu-nien",
            "origin_name": "Hot Blooded Youth",
            "poster_url": "https://phimimg.com/upload/vod/20241104-1/30c9a961859d11d38043f48a1eb0d33e.jpg",
            "thumb_url": "https://phimimg.com/upload/vod/20241104-1/5d9233df7db938a71bfc2dcd6453f447.jpg",
            "year": 2019
        }
    ],
    "pagination": {
        "totalItems": 20645,
        "totalItemsPerPage": 10,
        "currentPage": 140,
        "totalPages": 2065
    }
}