{
    "status": true,
    "items": [
        {
            "modified": {
                "time": "2024-11-04T10:57:29.000Z"
            },
            "_id": "6bf07879df0b3053d079e0ed4dd8cd27",
            "name": "Tr\u01b0\u1eddng An N\u1eb7c",
            "slug": "truong-an-nac",
            "origin_name": "The Promise Of Chang'an",
            "poster_url": "https://phimimg.com/upload/vod/20241104-1/b5539478a916df53edc07f8f1bc8b525.jpg",
            "thumb_url": "https://phimimg.com/upload/vod/20241104-1/63bd350eaa87ab0c94e8685f817be04d.jpg",
            "year": 2020
        },
        {
            "modified": {
                "time": "2024-11-04T10:54:07.000Z"
            },
            "_id": "f5c981c11d76faa6f95e9dfad16e3eb9",
            "name": "Ti\u1ec3u N\u01b0\u01a1ng T\u1eed Nh\u00e0 T\u01b0\u1edbng Qu\u00e2n",
            "slug": "tieu-nuong-tu-nha-tuong-quan",
            "origin_name": "General's Lady",
            "poster_url": "https://phimimg.com/upload/vod/20241104-1/1a5450a720498e58f95870db2d10cde1.jpg",
            "thumb_url": "https://phimimg.com/upload/vod/20241104-1/f574f4e3e4203d38e1aefc33b0c54703.jpg",
            "year": 2020
        },
        {
            "modified": {
                "time": "2024-11-04T10:47:19.000Z"
            },
            "_id": "4fb68a3bcb11bde10e8821b55674278a",
            "name": "Ng\u01b0\u1eddi T\u00ecnh Mu\u00f4n M\u1eb7t",
            "slug": "nguoi-tinh-muon-mat",
            "origin_name": "Lover With Many Faces",
            "poster_url": "https://phimimg.com/upload/vod/20241104-1/c91cec14e8d8584016b23ed8ac8cbe2c.jpg",
            "thumb_url": "https://phimimg.com/upload/vod/20241104-1/04d765a2563aa7eb3bf0179781db2676.jpg",
            "year": 2022
        },
        {
            "modified": {
                "time": "2024-11-04T10:40:27.000Z"
            },
            "_id": "b26f323f0da18551583d2bbf9631ce17",
            "name": "Ngon T\u1eebng Ng\u00f5 Ng\u00e1ch",
            "slug": "ngon-tung-ngo-ngach",
            "origin_name": "Delicious Every Corner",
            "poster_url": "https://phimimg.com/upload/vod/20241104-1/025119aa5e78d7c7c698c8d75c0573fe.jpg",
            "thumb_url": "https://phimimg.com/upload/vod/20241104-1/aef758884ed23f999b8445f99ff1b7d3.jpg",
            "year": 2016
        },
        {
            "modified": {
                "time": "2024-11-04T10:35:42.000Z"
            },
            "_id": "e1114c80b1403391c2dca875f2cc1310",
            "name": "N\u1eef Y Minh Phi Truy\u1ec7n",
            "slug": "nu-y-minh-phi-truyen",
            "origin_name": "The Imperial Doctress",
            "poster_url": "https://phimimg.com/upload/vod/20241104-1/35299f75cbb7f789855941dc8dcef346.jpg",
            "thumb_url": "https://phimimg.com/upload/vod/20241104-1/0d7fd328cc8239ae6e09e261f91a5a41.jpg",
            "year": 2016
        },
        {
            "modified": {
                "time": "2024-11-04T10:17:31.000Z"
            },
            "_id": "78dbe27fdb74c9ae3b0a6c17bffa8b18",
            "name": "N\u1ed5i Lo\u1ea1n 48H",
            "slug": "noi-loan-48h",
            "origin_name": "48H Rebellion",
            "poster_url": "https://phimimg.com/upload/vod/20241104-1/f025d83594da1b0625c3e971cf1b610c.jpg",
            "thumb_url": "https://phimimg.com/upload/vod/20241104-1/966414c7c3a865b1d3c76f406694c955.jpg",
            "year": 2023
        },
        {
            "modified": {
                "time": "2024-11-04T10:13:01.000Z"
            },
            "_id": "6e315707bfe8c9809f10e7336a2455a2",
            "name": "Ph\u00e1c H\u1ecda K\u1ebb S\u00e1t Nh\u00e2n",
            "slug": "phac-hoa-ke-sat-nhan",
            "origin_name": "Sketch",
            "poster_url": "https://phimimg.com/upload/vod/20241104-1/897f94d47cdf76c41ef852e6e8662918.jpg",
            "thumb_url": "https://phimimg.com/upload/vod/20241104-1/a7097071d95d093fe6a176f4649d08dd.jpg",
            "year": 2018
        },
        {
            "modified": {
                "time": "2024-11-04T10:09:58.000Z"
            },
            "_id": "2daa0ed5a7fcf2f8d10567fdff504b9e",
            "name": "N\u1ebfu Em B\u00ecnh An \u0110\u00f3 M\u1edbi L\u00e0 Ng\u00e0y \u0110\u1eb9p Tr\u1eddi",
            "slug": "neu-em-binh-an-do-moi-la-ngay-dep-troi",
            "origin_name": "Sunshine Of My Life",
            "poster_url": "https://phimimg.com/upload/vod/20241104-1/bc0d9288de2a59315e21e43eccbab2ae.jpg",
            "thumb_url": "https://phimimg.com/upload/vod/20241104-1/242b2d917c2006dff599fbe34117b802.jpg",
            "year": 2021
        },
        {
            "modified": {
                "time": "2024-11-04T10:07:39.000Z"
            },
            "_id": "c1de2111b16e6b21b794451fe54ef86f",
            "name": "Pucca",
            "slug": "pucca",
            "origin_name": "Pucca",
            "poster_url": "https://phimimg.com/upload/vod/20241104-1/6a825d3758be1cb4d1833de27fc817d9.jpg",
            "thumb_url": "https://phimimg.com/upload/vod/20241104-1/7db0d1cfd5687c0878a0a83febdc5d25.jpg",
            "year": 2006
        },
        {
            "modified": {
                "time": "2024-11-04T10:01:04.000Z"
            },
            "_id": "e39ed4a64531c1a03dd03d2a1323f98c",
            "name": "M\u1ea5t T\u00edch \u0110\u00eam 30",
            "slug": "mat-tich-dem-30",
            "origin_name": "Missing Eve Of Tet",
            "poster_url": "https://phimimg.com/upload/vod/20241104-1/f9319bcb772536d910a1aba667f394fc.jpg",
            "thumb_url": "https://phimimg.com/upload/vod/20241104-1/4502baddb283beabd7ea9239cdd68dbc.jpg",
            "year": 2024
        }
    ],
    "pagination": {
        "totalItems": 20645,
        "totalItemsPerPage": 10,
        "currentPage": 138,
        "totalPages": 2065
    }
}