{
    "status": true,
    "items": [
        {
            "modified": {
                "time": "2024-11-04T09:56:59.000Z"
            },
            "_id": "406f5b9d1be9d4813acfb525d0b3c172",
            "name": "M\u1eaft C\u1ee7a Qu\u1ef7",
            "slug": "mat-cua-quy",
            "origin_name": "Devil's Eye",
            "poster_url": "https://phimimg.com/upload/vod/20241104-1/70aaee9be46d786a01300e9aef693fd1.jpg",
            "thumb_url": "https://phimimg.com/upload/vod/20241104-1/0e1955bfae264dbfe8bc684a22059513.jpg",
            "year": 2020
        },
        {
            "modified": {
                "time": "2024-11-04T09:52:36.000Z"
            },
            "_id": "1b984659debd729d742b0035a987f069",
            "name": "L\u1eeda H\u1eadn T\u00ecnh Th\u00f9",
            "slug": "lua-han-tinh-thu",
            "origin_name": "Yellow Boots",
            "poster_url": "https://phimimg.com/upload/vod/20241104-1/964461e19a046053fdbb028f8389c3d1.jpg",
            "thumb_url": "https://phimimg.com/upload/vod/20241104-1/af2ed372462e7811e392ad1363e23c2f.jpg",
            "year": 2012
        },
        {
            "modified": {
                "time": "2024-11-04T09:48:53.000Z"
            },
            "_id": "4f372ad0cb173caf4691d83696b3b08a",
            "name": "Lu\u1eadt S\u01b0 Th\u1eddi Joseon",
            "slug": "luat-su-thoi-joseon",
            "origin_name": "Joseon Attorney: A Morality",
            "poster_url": "https://phimimg.com/upload/vod/20241104-1/9fe8e74c99ec6a1ba460f182b73df946.jpg",
            "thumb_url": "https://phimimg.com/upload/vod/20241104-1/b4af752a2d9f922fd5d4c05b9d803d37.jpg",
            "year": 2023
        },
        {
            "modified": {
                "time": "2024-11-04T09:32:24.000Z"
            },
            "_id": "981322808aba8a036b138c0b669d826c",
            "name": "Kh\u00f4ng S\u1ee3 H\u00e3i",
            "slug": "khong-so-hai",
            "origin_name": "No Fear",
            "poster_url": "https://phimimg.com/upload/vod/20241104-1/709f39cc53467af6d14ab935fe1c733b.jpg",
            "thumb_url": "https://phimimg.com/upload/vod/20241104-1/7e014d17f270c99dc1e6b39093a4a00e.jpg",
            "year": 2022
        },
        {
            "modified": {
                "time": "2024-11-04T09:27:59.000Z"
            },
            "_id": "171a559fc57627e85f85fa328bfb59f8",
            "name": "Kh\u00e9p L\u1ea1i Qu\u00e1 Kh\u1ee9",
            "slug": "khep-lai-qua-khu",
            "origin_name": "Closing The Past",
            "poster_url": "https://phimimg.com/upload/vod/20241104-1/c7e47078a02056b4c51b9944ecec6356.jpg",
            "thumb_url": "https://phimimg.com/upload/vod/20241104-1/a52efd5105f7741603bd6246f5ae5894.jpg",
            "year": 2018
        },
        {
            "modified": {
                "time": "2024-11-04T09:23:35.000Z"
            },
            "_id": "093562aee4b200f3c39fdd15462f2f9b",
            "name": "K\u1ebb \u0110\u00e1nh C\u1eafp B\u00e1u V\u1eadt",
            "slug": "ke-danh-cap-bau-vat",
            "origin_name": "Stealer: The Treasure Keeper",
            "poster_url": "https://phimimg.com/upload/vod/20241104-1/6c4897d09a315a3ad002b1a595b4ca25.jpg",
            "thumb_url": "https://phimimg.com/upload/vod/20241104-1/18371b27b76b1deea811769c3119a747.jpg",
            "year": 2023
        },
        {
            "modified": {
                "time": "2024-11-04T08:48:09.000Z"
            },
            "_id": "280433a363394d3a259d0d1044b86afc",
            "name": "H\u1ecdc K\u1ef3 Sinh T\u1eed",
            "slug": "hoc-ky-sinh-tu",
            "origin_name": "Duty After School",
            "poster_url": "https://phimimg.com/upload/vod/20241104-1/bb6970a4b22a1cece838eec123687a57.jpg",
            "thumb_url": "https://phimimg.com/upload/vod/20241104-1/bcf4813c08cf660f76a06a4855561526.jpg",
            "year": 2023
        },
        {
            "modified": {
                "time": "2024-11-04T08:45:31.000Z"
            },
            "_id": "96d159ddda271e1d08ee7b0351b6620b",
            "name": "H\u1ebbm T\u1eed Th\u1ea7n",
            "slug": "hem-tu-than",
            "origin_name": "Death Alley",
            "poster_url": "https://phimimg.com/upload/vod/20241104-1/34975af5e880f1dbaf51bc0f113d56bf.jpg",
            "thumb_url": "https://phimimg.com/upload/vod/20241104-1/7c3abb177f1fddc0fd34e2593bfb5ea7.jpg",
            "year": 2022
        },
        {
            "modified": {
                "time": "2024-11-04T08:41:39.000Z"
            },
            "_id": "b1d69d7f6eceef8700a1dc70160ec0ff",
            "name": "Giao D\u1ecbch Ho\u00e0n H\u1ea3o",
            "slug": "giao-dich-hoan-hao",
            "origin_name": "The Deal",
            "poster_url": "https://phimimg.com/upload/vod/20241104-1/748a7125ec904b648de5aa47b31f7489.jpg",
            "thumb_url": "https://phimimg.com/upload/vod/20241104-1/0259ef304b922316b2c6775d029c7164.jpg",
            "year": 2023
        },
        {
            "modified": {
                "time": "2024-11-04T08:38:25.000Z"
            },
            "_id": "f0d15faf5024b8835ceef5548c062f56",
            "name": "D R 3 A M D\u1ecb Chuy\u1ec7n",
            "slug": "d-r-3-a-m-di-chuyen",
            "origin_name": "D R 3 A M Strange Tales",
            "poster_url": "https://phimimg.com/upload/vod/20241104-1/51e02cd69f7ae85195614b5663a2ee4a.jpg",
            "thumb_url": "https://phimimg.com/upload/vod/20241104-1/d6bbe0a6da9f74fd792a8af14942e27d.jpg",
            "year": 2021
        }
    ],
    "pagination": {
        "totalItems": 20645,
        "totalItemsPerPage": 10,
        "currentPage": 139,
        "totalPages": 2065
    }
}