{
    "status": true,
    "items": [
        {
            "modified": {
                "time": "2024-11-02T14:59:44.000Z"
            },
            "_id": "f6a30e49f127613c5448d67728e7b7a8",
            "name": "\u0110\u1eebng Bu\u00f4ng Tay",
            "slug": "dung-buong-tay-2024",
            "origin_name": "Never Let Go",
            "poster_url": "https://phimimg.com/upload/vod/20241102-1/1bff3327db765f4649c59afb1de34e1b.jpg",
            "thumb_url": "https://phimimg.com/upload/vod/20241102-1/216c7c8e1bfe14e564a459a9f5171959.jpg",
            "year": 2024
        },
        {
            "modified": {
                "time": "2024-11-02T14:59:32.000Z"
            },
            "_id": "32c3215de8110a85d451202e083fe156",
            "name": "Mi\u1ec1n \u0110\u1ea5t H\u1ee9a",
            "slug": "mien-dat-hua-2020",
            "origin_name": "The Promised Neverland",
            "poster_url": "https://phimimg.com/upload/vod/20241102-1/4bad147352fc5d2ecc9e672052e3806a.jpg",
            "thumb_url": "https://phimimg.com/upload/vod/20241102-1/10905bd71f07511c264d6d8879a7afd5.jpg",
            "year": 2020
        },
        {
            "modified": {
                "time": "2024-11-02T14:59:21.000Z"
            },
            "_id": "7ac0d6f2a7e643934c4c056762c37596",
            "name": "Cu\u1ed9c T\u00ecnh Chen Ngang",
            "slug": "cuoc-tinh-chen-ngang",
            "origin_name": "Us X Her",
            "poster_url": "https://phimimg.com/upload/vod/20241102-1/e126eb983753d2ddd232ac694ea5a20f.jpg",
            "thumb_url": "https://phimimg.com/upload/vod/20241102-1/d163513b763e6b918c99cd41e2fc20e9.jpg",
            "year": 2022
        },
        {
            "modified": {
                "time": "2024-11-02T14:59:09.000Z"
            },
            "_id": "8501739eacf3793e668d4b34bb8cffbe",
            "name": "T\u00ecnh B\u1ea1n Tu\u1ed5i X\u1ebf Chi\u1ec1u",
            "slug": "tinh-ban-tuoi-xe-chieu",
            "origin_name": "Dear My Friends",
            "poster_url": "https://phimimg.com/upload/vod/20241102-1/d89e71c8b78ea8b7e7de1d4234207cdd.jpg",
            "thumb_url": "https://phimimg.com/upload/vod/20241102-1/f8108b5eaaf5f64b487388642cd0b111.jpg",
            "year": 2016
        },
        {
            "modified": {
                "time": "2024-11-02T14:58:38.000Z"
            },
            "_id": "172542e23fd13f9c57b7fda580df52eb",
            "name": "\u0110\u1eebng v\u1ec1 nh\u00e0",
            "slug": "dung-ve-nha",
            "origin_name": "Don't Come Home",
            "poster_url": "https://phimimg.com/upload/vod/20241102-1/f98f7f6c901da225dcea83dc6086b20d.jpg",
            "thumb_url": "https://phimimg.com/upload/vod/20241102-1/c03e80a26db06ed7abf67abe4b00cd61.jpg",
            "year": 2024
        },
        {
            "modified": {
                "time": "2024-11-02T04:24:59.000Z"
            },
            "_id": "10112e4e12aa494db03ea2462302d34d",
            "name": "T\u00f2a Th\u00e0nh Th\u1eddi Gian",
            "slug": "toa-thanh-thoi-gian",
            "origin_name": "Castle In The Time",
            "poster_url": "https://phimimg.com/upload/vod/20241013-1/aa846c54f0ec4493cd36369ab95012f5.jpg",
            "thumb_url": "https://phimimg.com/upload/vod/20241013-1/745a9ad143b0024ba1d6ee558483121d.jpg",
            "year": 2023
        },
        {
            "modified": {
                "time": "2024-11-02T04:20:31.000Z"
            },
            "_id": "bed6efa1f192db7c30ede96dbb9d76ee",
            "name": "Nh\u1eefng K\u1ebb Ph\u00e1 Ho\u1ea1i Seoul",
            "slug": "nhung-ke-pha-hoai-seoul",
            "origin_name": "Seoul Busters",
            "poster_url": "https://phimimg.com/upload/vod/20240911-1/95021bc6148dcab10c57f93ee1ed64e5.jpg",
            "thumb_url": "https://phimimg.com/upload/vod/20240911-1/cdb7074c02e03c57e488a99bdcda34b5.jpg",
            "year": 2024
        },
        {
            "modified": {
                "time": "2024-11-02T04:16:44.000Z"
            },
            "_id": "b9d0cdbab65a298d077a7b9794f97cd5",
            "name": "L\u1ec5 T\u1ed1t Nghi\u1ec7p Ch\u00fang M\u00ecnh",
            "slug": "le-tot-nghiep-chung-minh",
            "origin_name": "L\u1ec5 T\u1ed1t Nghi\u1ec7p Ch\u00fang M\u00ecnh",
            "poster_url": "https://phimimg.com/upload/vod/20241027-1/4a500f891b687e51363dc59309b4fef0.jpg",
            "thumb_url": "https://phimimg.com/upload/vod/20241027-1/7093b02a19282641152a567ea0b51972.jpg",
            "year": 2024
        },
        {
            "modified": {
                "time": "2024-11-02T04:09:45.000Z"
            },
            "_id": "048254aeb7077a501a9098fef163a813",
            "name": "C\u00f3 Linh Th\u00fa (Ph\u1ea7n 4)",
            "slug": "co-linh-thu-phan-4",
            "origin_name": "Fabulous Beasts (Season 4)",
            "poster_url": "https://phimimg.com/upload/vod/20241004-1/0b059e24d3d536c431c5ab6705456d02.jpg",
            "thumb_url": "https://phimimg.com/upload/vod/20241004-1/f99ed2deb251ae9ba368e7abbd75ba7c.jpg",
            "year": 2023
        },
        {
            "modified": {
                "time": "2024-11-02T01:24:54.000Z"
            },
            "_id": "d6e4f7092412810fe574f27408dbb8a2",
            "name": "Th\u1ea7n D\u01b0\u1ee3c",
            "slug": "than-duoc",
            "origin_name": "The Substance",
            "poster_url": "https://phimimg.com/upload/vod/20241102-1/fc3ffce16672518d0f3bca8920583408.jpg",
            "thumb_url": "https://phimimg.com/upload/vod/20241102-1/2024c636239c60692725ead305b8a1d1.jpg",
            "year": 2024
        }
    ],
    "pagination": {
        "totalItems": 20645,
        "totalItemsPerPage": 10,
        "currentPage": 146,
        "totalPages": 2065
    }
}