{
    "status": true,
    "items": [
        {
            "modified": {
                "time": "2024-11-01T00:56:26.000Z"
            },
            "_id": "cfdeefc98127480b07bd11d089e62bf2",
            "name": "M\u1eadt M\u00e3 Ph\u00f9 Th\u1ee7y (Ph\u1ea7n 3)",
            "slug": "mat-ma-phu-thuy-phan-3",
            "origin_name": "A Discovery Of Witches (Season 3)",
            "poster_url": "https://phimimg.com/upload/vod/20241101-1/96c2aebe81fd4373c20a4536d7153615.jpg",
            "thumb_url": "https://phimimg.com/upload/vod/20241101-1/04dcb41da68b2f6d77edacd72f90047e.jpg",
            "year": 2022
        },
        {
            "modified": {
                "time": "2024-11-01T00:56:11.000Z"
            },
            "_id": "949b6216f42ab06201c488deab78781f",
            "name": "M\u1eadt M\u00e3 Ph\u00f9 Th\u1ee7y (Ph\u1ea7n 1)",
            "slug": "mat-ma-phu-thuy-phan-1",
            "origin_name": "A Discovery Of Witches (Season 1)",
            "poster_url": "https://phimimg.com/upload/vod/20241101-1/cab36c84b8ad6d37175e839266f866d7.jpg",
            "thumb_url": "https://phimimg.com/upload/vod/20241101-1/4bd83d0fc6cabd09a0e452bf7dafe329.jpg",
            "year": 2018
        },
        {
            "modified": {
                "time": "2024-10-31T21:27:49.000Z"
            },
            "_id": "9a60f48f5298395dc0d6e0cf062d8cd7",
            "name": "Di\u00ean Hi C\u00f4ng L\u01b0\u1ee3c",
            "slug": "dien-hi-cong-luoc",
            "origin_name": "Story of Yanxi Palace",
            "poster_url": "https://phimimg.com/upload/vod/20240802-1/2b9eb922cbcee996aa5ff17077bc27ff.jpg",
            "thumb_url": "https://phimimg.com/upload/vod/20240802-1/6398b13377cec33648c4b9e596782642.jpg",
            "year": 2018
        },
        {
            "modified": {
                "time": "2024-10-31T20:56:24.000Z"
            },
            "_id": "ad349260e620cd077c06cc4d9144f55f",
            "name": "Ph\u00f9 Th\u1ee7y Agatha",
            "slug": "phu-thuy-agatha",
            "origin_name": "Agatha All Along",
            "poster_url": "https://phimimg.com/upload/vod/20240920-1/a89c77993acc2463d820af6dfba4cdd0.jpg",
            "thumb_url": "https://phimimg.com/upload/vod/20240920-1/fc946af9aaeb343ef9f393996049e05e.jpg",
            "year": 2024
        },
        {
            "modified": {
                "time": "2024-10-31T20:49:33.000Z"
            },
            "_id": "0d88763f1847f6cefc78c651ecc42cdf",
            "name": "T\u01b0\u01a1ng Th\u00e1c",
            "slug": "tuong-thac",
            "origin_name": "Mistaken Love",
            "poster_url": "https://phimimg.com/upload/vod/20241027-1/3221d6ed30cd1cd9708f70d93e5bf501.jpg",
            "thumb_url": "https://phimimg.com/upload/vod/20241027-1/914fd4b51c8899f0bed023db8377115c.jpg",
            "year": 2024
        },
        {
            "modified": {
                "time": "2024-10-31T18:48:08.000Z"
            },
            "_id": "e78e39ea372dddd546988c1f8e7bd0cb",
            "name": "V\u1ee5 b\u1eaft c\u00f3c c\u1ee7a ng\u01b0\u1eddi ngo\u00e0i h\u00e0nh tinh \u1edf Manhattan",
            "slug": "vu-bat-coc-cua-nguoi-ngoai-hanh-tinh-o-manhattan",
            "origin_name": "The Manhattan Alien Abduction",
            "poster_url": "https://phimimg.com/upload/vod/20241031-1/e4639f31d72d7a7edb641b05b8bf57a6.jpg",
            "thumb_url": "https://phimimg.com/upload/vod/20241031-1/f7a7060ac252135c897662ec35e87baa.jpg",
            "year": 2024
        },
        {
            "modified": {
                "time": "2024-10-31T18:47:33.000Z"
            },
            "_id": "67e103b0761e60683e83c559be18d40c",
            "name": "M\u00e1u, T\u00ecnh D\u1ee5c V\u00e0 Ho\u00e0ng T\u1ed9c",
            "slug": "mau-tinh-duc-va-hoang-toc",
            "origin_name": "Blood, Sex & Royalty",
            "poster_url": "https://phimimg.com/upload/vod/20241031-1/a5c897d63c83be130c4db7cccf9b5349.jpg",
            "thumb_url": "https://phimimg.com/upload/vod/20241031-1/d91dd4b41bcf06a46a761a11ad5c5d07.jpg",
            "year": 2022
        },
        {
            "modified": {
                "time": "2024-10-31T18:47:03.000Z"
            },
            "_id": "9a1de01f893e0d2551ecbb7ce4dc963e",
            "name": "S\u00e1t Th\u1ee7 L\u00f5a Th\u1ec3",
            "slug": "sat-thu-loa-the",
            "origin_name": "Naked Killer",
            "poster_url": "https://phimimg.com/upload/vod/20241031-1/0c48675b4434a31164afa8bd0a3c8e03.jpg",
            "thumb_url": "https://phimimg.com/upload/vod/20241031-1/8daccc58b727750ffb449b2b2fa4c4e9.jpg",
            "year": 1992
        },
        {
            "modified": {
                "time": "2024-10-31T18:29:29.000Z"
            },
            "_id": "5178db2466fc5ad9f0f2354a3f504d82",
            "name": "Azrael: Cu\u1ed9c Chi\u1ebfn Sinh T\u1ed3n",
            "slug": "azrael-cuoc-chien-sinh-ton",
            "origin_name": "Azrael",
            "poster_url": "https://phimimg.com/upload/vod/20241009-1/e5a34457f53887d8e5efc5b97a80000e.jpg",
            "thumb_url": "https://phimimg.com/upload/vod/20241009-1/952455d6b3095c7a9ebf8decc12b2312.jpg",
            "year": 2024
        },
        {
            "modified": {
                "time": "2024-10-31T18:29:03.000Z"
            },
            "_id": "13be619fe4333bac694c3bdfd3367cbd",
            "name": "V\u00f9ng X\u00e1m",
            "slug": "vung-xam",
            "origin_name": "The Grey Zone",
            "poster_url": "https://phimimg.com/upload/vod/20241031-1/656353cf7e76b9ac870ee23ef11051c4.jpg",
            "thumb_url": "https://phimimg.com/upload/vod/20241031-1/3de4390f99ac4e9b8cbd93467fbe05dc.jpg",
            "year": 2001
        }
    ],
    "pagination": {
        "totalItems": 20645,
        "totalItemsPerPage": 10,
        "currentPage": 149,
        "totalPages": 2065
    }
}