{
    "status": true,
    "items": [
        {
            "modified": {
                "time": "2024-11-05T23:07:41.000Z"
            },
            "_id": "c0922ade21becf758819c686aaca845b",
            "name": "Sophie: \u00c1n m\u1ea1ng t\u1ea1i West Cork",
            "slug": "sophie-an-mang-tai-west-cork",
            "origin_name": "Sophie: A Murder in West Cork",
            "poster_url": "https://phimimg.com/upload/vod/20241105-1/5ae1dbe742d36330dbed5412ad23672a.jpg",
            "thumb_url": "https://phimimg.com/upload/vod/20241105-1/748e9da1483ca86ea0e3a273b09ec2e0.jpg",
            "year": 2021
        },
        {
            "modified": {
                "time": "2024-11-05T23:06:35.000Z"
            },
            "_id": "44184c93bceadbcbcfe47b3ba235ee62",
            "name": "Bogdan Boner: Ng\u01b0\u1eddi Tr\u1eeb Qu\u1ef7 (Ph\u1ea7n 2)",
            "slug": "bogdan-boner-nguoi-tru-quy-phan-2",
            "origin_name": "Bad Exorcist (Season 2)",
            "poster_url": "https://phimimg.com/upload/vod/20241105-1/9ca600e04c307d50db02e453cd7d3657.jpg",
            "thumb_url": "https://phimimg.com/upload/vod/20241105-1/5cf7371c1637cdc6f5d309facfe821ec.jpg",
            "year": 2021
        },
        {
            "modified": {
                "time": "2024-11-05T23:06:23.000Z"
            },
            "_id": "1ffef630011b95d233d7dd7c7b078568",
            "name": "Bogdan Boner: Ng\u01b0\u1eddi Tr\u1eeb Qu\u1ef7 (Ph\u1ea7n 1)",
            "slug": "bogdan-boner-nguoi-tru-quy-phan-1",
            "origin_name": "Bad Exorcist (Season 1)",
            "poster_url": "https://phimimg.com/upload/vod/20241105-1/bab990847587e63dfd73579ee05dc213.jpg",
            "thumb_url": "https://phimimg.com/upload/vod/20241105-1/83f798db2de62e74e89e80a006261fcb.jpg",
            "year": 2020
        },
        {
            "modified": {
                "time": "2024-11-05T22:37:14.000Z"
            },
            "_id": "739025f319bf2fc8ecafa26f547defbc",
            "name": "Nh\u1ea5t Phi\u1ebfn B\u0103ng T\u00e2m T\u1ea1i Ng\u1ecdc H\u1ed3",
            "slug": "nhat-phien-bang-tam-tai-ngoc-ho",
            "origin_name": "Heart Of Loyalty",
            "poster_url": "https://phimimg.com/upload/vod/20241105-1/67dfb9042180b86c5cf048780f9d3e7c.jpg",
            "thumb_url": "https://phimimg.com/upload/vod/20241105-1/764315000a9adb3afb61b9eda95a3556.jpg",
            "year": 2021
        },
        {
            "modified": {
                "time": "2024-11-05T21:47:09.000Z"
            },
            "_id": "889a669f8711879aed110525c185ff3b",
            "name": "Ph\u00eda B\u00ean Kia C\u1ee7a Gi\u01b0\u1eddng",
            "slug": "phia-ben-kia-cua-giuong",
            "origin_name": "The Other Side Of The Bed",
            "poster_url": "https://phimimg.com/upload/vod/20241105-1/6c2e43c257bdeda68905b4e3c133933d.jpg",
            "thumb_url": "https://phimimg.com/upload/vod/20241105-1/82e93974386880577a4cb0990d83fd46.jpg",
            "year": 2002
        },
        {
            "modified": {
                "time": "2024-11-05T17:36:09.000Z"
            },
            "_id": "597eda37c5212c69192a465bdfbcfe4a",
            "name": "V\u1eabn M\u00e3i L\u00e0 Em",
            "slug": "van-mai-la-em",
            "origin_name": "Me Always You",
            "poster_url": "https://phimimg.com/upload/vod/20241105-1/ff9b778b3f26b2b82af290a6b306c40f.jpg",
            "thumb_url": "https://phimimg.com/upload/vod/20241105-1/48437a2a62e5036c7aed1f6182a411ed.jpg",
            "year": 2021
        },
        {
            "modified": {
                "time": "2024-11-05T17:34:18.000Z"
            },
            "_id": "41e56f14c6c580912b67c91133643a54",
            "name": "Romeo V\u00e0 Ch\u00fac Anh \u0110\u00e0i",
            "slug": "romeo-va-chuc-anh-dai",
            "origin_name": "Romeo And His Butterfly Lover",
            "poster_url": "https://phimimg.com/upload/vod/20241105-1/c982e941d71db61c8c65a618084cb6d8.jpg",
            "thumb_url": "https://phimimg.com/upload/vod/20241105-1/68bb186fb6adddb5b534a80d6a054f3c.jpg",
            "year": 2023
        },
        {
            "modified": {
                "time": "2024-11-05T17:11:48.000Z"
            },
            "_id": "1194292054da355d3be4c0d3b69b9d9f",
            "name": "Oan Gia",
            "slug": "oan-gia",
            "origin_name": "My Friend The Enemy",
            "poster_url": "https://phimimg.com/upload/vod/20240419-1/4e38a0b3c443b0e5fb10ee0acd0458ca.jpg",
            "thumb_url": "https://phimimg.com/upload/vod/20240419-1/9cf79adc4154f135d68ad14bd023adb0.jpg",
            "year": 2022
        },
        {
            "modified": {
                "time": "2024-11-05T17:09:02.000Z"
            },
            "_id": "c6945f4391acfd9319dcd33b120a174f",
            "name": "Nh\u1ea5t Ni\u1ec7m Quan S\u01a1n",
            "slug": "nhat-niem-quan-son",
            "origin_name": "A Journey To Love",
            "poster_url": "https://phimimg.com/upload/vod/20241105-1/4ad1b5058b2c14b027a5f60147aa5f9f.jpg",
            "thumb_url": "https://phimimg.com/upload/vod/20241105-1/5a23f965e6326fb5fabe35aeac02788c.jpg",
            "year": 2023
        },
        {
            "modified": {
                "time": "2024-11-05T17:05:55.000Z"
            },
            "_id": "36e0c72e6254a2992a95c193194f52a5",
            "name": "N\u1ed9i Gi\u00e1n ATF",
            "slug": "noi-gian-atf",
            "origin_name": "Ruse Of Engagement",
            "poster_url": "https://phimimg.com/upload/vod/20241105-1/1c09b227fbd9101a4620cfc128b3d263.jpg",
            "thumb_url": "https://phimimg.com/upload/vod/20241105-1/b0f1a0b15646167636d73d1bfea5f3d4.jpg",
            "year": 2014
        }
    ],
    "pagination": {
        "totalItems": 20645,
        "totalItemsPerPage": 10,
        "currentPage": 133,
        "totalPages": 2065
    }
}