{
    "status": true,
    "items": [
        {
            "modified": {
                "time": "2024-11-06T12:31:37.000Z"
            },
            "_id": "eb63dbf55a3f40d1a2ea77fd884abd26",
            "name": "Linh H\u1ed3n V\u0169 N\u1eef 2: Nghi Th\u1ee9c H\u1ed3i Sinh",
            "slug": "linh-hon-vu-nu-2-nghi-thuc-hoi-sinh",
            "origin_name": "Dancing Village: The Curse Begins",
            "poster_url": "https://phimimg.com/upload/vod/20241106-1/060b751dbfccd84263cf7345e9fca08e.jpg",
            "thumb_url": "https://phimimg.com/upload/vod/20241106-1/ae1fb7c637e1b6e6d290395239e0e0f8.jpg",
            "year": 2024
        },
        {
            "modified": {
                "time": "2024-11-06T12:31:25.000Z"
            },
            "_id": "44e2a386042be6deb6463a2f2b18fe73",
            "name": "Nh\u1eefng K\u1ebb Tham Lam",
            "slug": "nhung-ke-tham-lam",
            "origin_name": "Greedy People",
            "poster_url": "https://phimimg.com/upload/vod/20241106-1/ad6dc172cdcba45c4f60a852e5818b0b.jpg",
            "thumb_url": "https://phimimg.com/upload/vod/20241106-1/9a95d55bccbd218a360cc99aff363fa8.jpg",
            "year": 2024
        },
        {
            "modified": {
                "time": "2024-11-06T12:31:14.000Z"
            },
            "_id": "cfc69414187bd8ade5c17c797a107525",
            "name": "\u0110\u1ed5i Thay",
            "slug": "doi-thay",
            "origin_name": "New Normal",
            "poster_url": "https://phimimg.com/upload/vod/20241106-1/138828be54bd5343e5b27e1e44dc024c.jpg",
            "thumb_url": "https://phimimg.com/upload/vod/20241106-1/e104ea47b432abc64a649d8e4105e123.jpg",
            "year": 2023
        },
        {
            "modified": {
                "time": "2024-11-06T12:30:36.000Z"
            },
            "_id": "ddd9dda6bfaf0bb1525a8a27c3ee6131",
            "name": "Babylon",
            "slug": "babylon",
            "origin_name": "Babylon",
            "poster_url": "https://phimimg.com/upload/vod/20241106-1/5d1931813297a58361a3871cae8cb9d9.jpg",
            "thumb_url": "https://phimimg.com/upload/vod/20241106-1/0a09bd62041f43b37976e85b11ef8fbc.jpg",
            "year": 2022
        },
        {
            "modified": {
                "time": "2024-11-06T12:30:24.000Z"
            },
            "_id": "c68f08960290bb2c218f8fd0c097ce8f",
            "name": "N\u1eef \u0110\u1ea1i L\u00e3o C\u1ee7a T\u00f4i",
            "slug": "nu-dai-lao-cua-toi",
            "origin_name": "My Super Heroine",
            "poster_url": "https://phimimg.com/upload/vod/20241106-1/1e2c8714549bce4b05853dca9a07d8b9.jpg",
            "thumb_url": "https://phimimg.com/upload/vod/20241106-1/b6007592e684cc1fdf0f43c75a2078f6.jpg",
            "year": 2024
        },
        {
            "modified": {
                "time": "2024-11-06T12:30:13.000Z"
            },
            "_id": "a386c7c329ce38ff6af74159a6f23dca",
            "name": "Ng\u01b0\u1eddi T\u00ecm \u0110ao",
            "slug": "nguoi-tim-dao",
            "origin_name": "Blade of Fury",
            "poster_url": "https://phimimg.com/upload/vod/20241106-1/07bbf5966a14d51ec615718d99c63b41.jpg",
            "thumb_url": "https://phimimg.com/upload/vod/20241106-1/d4beddde7f1494dc00fb0b73fa1d6ee7.jpg",
            "year": 2024
        },
        {
            "modified": {
                "time": "2024-11-06T12:30:03.000Z"
            },
            "_id": "299a48c40fac744498626b1df660d9c3",
            "name": "Ph\u00e9p M\u00e0u Gi\u1eefa \u0110\u00eam \u0110\u00f4ng",
            "slug": "phep-mau-giua-dem-dong",
            "origin_name": "White Bird",
            "poster_url": "https://phimimg.com/upload/vod/20241106-1/12189dad41fe299b4566f94405595a2b.jpg",
            "thumb_url": "https://phimimg.com/upload/vod/20241106-1/248200b5a02f7b00668915e183ffb2b4.jpg",
            "year": 2023
        },
        {
            "modified": {
                "time": "2024-11-06T12:29:18.000Z"
            },
            "_id": "fb4ea06503aa04a60eb1988bd67ecbde",
            "name": "T\u00f4i \u0110\u1ed9c Th\u00e2n D\u1ef1a V\u00e0o Th\u1ef1c L\u1ef1c",
            "slug": "toi-doc-than-dua-vao-thuc-luc",
            "origin_name": "Professional Single",
            "poster_url": "https://phimimg.com/upload/vod/20241106-1/340ddf46cee92ba7a535d338cdd6c78b.jpg",
            "thumb_url": "https://phimimg.com/upload/vod/20241106-1/8643761934b3ef1c9e17e4201b19ec98.jpg",
            "year": 2020
        },
        {
            "modified": {
                "time": "2024-11-06T12:28:59.000Z"
            },
            "_id": "bc9896c35a1d00719db5cfcbeec66f5b",
            "name": "Nh\u1eefng Ng\u01b0\u1eddi B\u1ea1n Thanh L\u1ecbch",
            "slug": "nhung-nguoi-ban-thanh-lich",
            "origin_name": "Graceful Friends",
            "poster_url": "https://phimimg.com/upload/vod/20241106-1/1e161ddaa52c1b108756ec39b21bea07.jpg",
            "thumb_url": "https://phimimg.com/upload/vod/20241106-1/d0effa40cf6c0d87f47ad067ed3d53e1.jpg",
            "year": 2020
        },
        {
            "modified": {
                "time": "2024-11-06T12:28:35.000Z"
            },
            "_id": "309d36bfe0e77374deeb836355f8db23",
            "name": "Tr\u1eafng \u0110en S\u00e1ng T\u1ecf",
            "slug": "trang-den-sang-to",
            "origin_name": "The Penalty Zone",
            "poster_url": "https://phimimg.com/upload/vod/20241106-1/e4d0ff7609686bb58859eaee21420319.jpg",
            "thumb_url": "https://phimimg.com/upload/vod/20241106-1/4daa1aadb01dffc329c317817decf98a.jpg",
            "year": 2020
        }
    ],
    "pagination": {
        "totalItems": 20645,
        "totalItemsPerPage": 10,
        "currentPage": 129,
        "totalPages": 2065
    }
}