{
    "status": true,
    "items": [
        {
            "modified": {
                "time": "2024-11-08T05:29:43.000Z"
            },
            "_id": "c2fe9a007bc6d74f028178c5bb912476",
            "name": "C\u1eeda H\u00e0ng Nh\u00e0 B\u00ean: Ch\u01b0\u01a1ng K\u1ebf Ti\u1ebfp (Ph\u1ea7n 1)",
            "slug": "cua-hang-nha-ben-chuong-ke-tiep-phan-1",
            "origin_name": "Check The Store Next Door: The Next Chapter (Season 1)",
            "poster_url": "https://phimimg.com/upload/vod/20241107-1/3c73afa3866e2203d254fde4531341d2.jpg",
            "thumb_url": "https://phimimg.com/upload/vod/20241107-1/909a2f60945c69db5f62f7d05ec94f95.jpg",
            "year": 2019
        },
        {
            "modified": {
                "time": "2024-11-07T20:35:42.000Z"
            },
            "_id": "bcc4a7499ea45c2f3285fcf678eb34b7",
            "name": "S\u01a1 Nhan",
            "slug": "so-nhan",
            "origin_name": "The Unbreakable Bond",
            "poster_url": "https://phimimg.com/upload/vod/20241023-1/3369851ee77ed04d35e29984a47d782b.jpg",
            "thumb_url": "https://phimimg.com/upload/vod/20241023-1/7060158ccfcba22285736c4e12c5eec6.jpg",
            "year": 2024
        },
        {
            "modified": {
                "time": "2024-11-06T20:07:37.000Z"
            },
            "_id": "c37cbf19d78d3acb12fa054c276183dd",
            "name": "Hoa H\u1ed3ng Trinh N\u1eef",
            "slug": "hoa-hong-trinh-nu",
            "origin_name": "Virgin Rose",
            "poster_url": "https://phimimg.com/upload/vod/20241106-1/ccccc2b0e39a4d0f56c3904b4573dd75.jpg",
            "thumb_url": "https://phimimg.com/upload/vod/20241106-1/6d3dd7649c99d47ebb6b760909a05047.jpg",
            "year": 2006
        },
        {
            "modified": {
                "time": "2024-11-06T20:05:34.000Z"
            },
            "_id": "0190fadb841d7ed83e29cca2a745bc2f",
            "name": "Girl Haunts Boy",
            "slug": "girl-haunts-boy",
            "origin_name": "Girl Haunts Boy",
            "poster_url": "https://phimimg.com/upload/vod/20241106-1/b585e0aad167e2e1d283121c1e5a1e7b.jpg",
            "thumb_url": "https://phimimg.com/upload/vod/20241106-1/8cebd410d8f6e7bb8d09df0921ad55bb.jpg",
            "year": 2024
        },
        {
            "modified": {
                "time": "2024-11-06T16:56:36.000Z"
            },
            "_id": "2d5b1c6a842b1f669d976472cc52e371",
            "name": "Ph\u00eda Sau C\u00e1i Ch\u1ebft",
            "slug": "phia-sau-cai-chet",
            "origin_name": "Behind The Death",
            "poster_url": "https://phimimg.com/upload/vod/20241005-1/795e8f69a90d9b470c844a6d017e7565.jpg",
            "thumb_url": "https://phimimg.com/upload/vod/20241005-1/aac3986c07b75cd6a7002797cdd61fc9.jpg",
            "year": 2024
        },
        {
            "modified": {
                "time": "2024-11-06T12:34:06.000Z"
            },
            "_id": "9de877106e8af0bc028f97b4728a3069",
            "name": "B\u1ea7y R\u00f9a V\u00f4 T\u1eadn",
            "slug": "bay-rua-vo-tan",
            "origin_name": "Turtles All the Way Down",
            "poster_url": "https://phimimg.com/upload/vod/20241106-1/cfb87ce2979101704c616bedc8955092.jpg",
            "thumb_url": "https://phimimg.com/upload/vod/20241106-1/340923368f7de5f0131c24164c9d16a5.jpg",
            "year": 2024
        },
        {
            "modified": {
                "time": "2024-11-06T12:33:52.000Z"
            },
            "_id": "3550bb0cfdaea287c6d57c41df1fa1b4",
            "name": "Tho\u00e1t Kh\u1ecfi Xi\u1ec1ng X\u00edch",
            "slug": "thoat-khoi-xieng-xich",
            "origin_name": "Vedaa",
            "poster_url": "https://phimimg.com/upload/vod/20241106-1/e9dcc9b2b631d38c6e099c0d5d9f7884.jpg",
            "thumb_url": "https://phimimg.com/upload/vod/20241106-1/7fc0a0dab7c7aa474ce873acc0e53c16.jpg",
            "year": 2024
        },
        {
            "modified": {
                "time": "2024-11-06T12:32:36.000Z"
            },
            "_id": "eb4f335eb073875d0faca60ca65d2b5f",
            "name": "C\u00f4 N\u00e0ng Nu\u00f4i Trai",
            "slug": "co-nang-nuoi-trai",
            "origin_name": "Tahong",
            "poster_url": "https://phimimg.com/upload/vod/20241106-1/2c1e213d67ef6e85b951fe7b7698cb0b.jpg",
            "thumb_url": "https://phimimg.com/upload/vod/20241106-1/5f112508e13d055718b32c4ad6c810b1.jpg",
            "year": 2024
        },
        {
            "modified": {
                "time": "2024-11-06T12:32:25.000Z"
            },
            "_id": "b02d8e29b2848ee5cd4387d2db1d379c",
            "name": "Theo S\u00e1ch V\u1edf",
            "slug": "theo-sach-vo",
            "origin_name": "Going by the Book",
            "poster_url": "https://phimimg.com/upload/vod/20241106-1/1f241a72f3592f18acc5ab2400d3895e.jpg",
            "thumb_url": "https://phimimg.com/upload/vod/20241106-1/16208e858f872f797a6f583eeb125cf2.jpg",
            "year": 2007
        },
        {
            "modified": {
                "time": "2024-11-06T12:31:47.000Z"
            },
            "_id": "db2d1bc7f17a3a44b4f1cb9075f6899c",
            "name": "\u0110\u1eb7c V\u1ee5 V\u00f4 H\u00ecnh",
            "slug": "dac-vu-vo-hinh-2024",
            "origin_name": "The Grey Man",
            "poster_url": "https://phimimg.com/upload/vod/20241106-1/8e60a33e0f53daf0a6c9e52deeae6433.jpg",
            "thumb_url": "https://phimimg.com/upload/vod/20241106-1/7307f103a2673509d7ce98f550a9b06d.jpg",
            "year": 2024
        }
    ],
    "pagination": {
        "totalItems": 20645,
        "totalItemsPerPage": 10,
        "currentPage": 128,
        "totalPages": 2065
    }
}