{
    "status": true,
    "items": [
        {
            "modified": {
                "time": "2024-11-04T07:46:56.000Z"
            },
            "_id": "ce5b54471d6429e7414522ceb08291a7",
            "name": "D\u00e2n S\u01a1 K\u1ef3 Nh\u00e2n Truy\u1ec7n",
            "slug": "dan-so-ky-nhan-truyen",
            "origin_name": "The Eight",
            "poster_url": "https://phimimg.com/upload/vod/20241104-1/2fb4300314e8991f1250413a1b7d0a1f.jpg",
            "thumb_url": "https://phimimg.com/upload/vod/20241104-1/78b62aad57716314d890552bd402142b.jpg",
            "year": 2020
        },
        {
            "modified": {
                "time": "2024-11-04T07:41:55.000Z"
            },
            "_id": "66cadef07c67a314389a824fd8fa0cd1",
            "name": "LTNS",
            "slug": "ltns",
            "origin_name": "Long Time No Sex",
            "poster_url": "https://phimimg.com/upload/vod/20241104-1/c362356455d3b4bf9766cebeac196f57.jpg",
            "thumb_url": "https://phimimg.com/upload/vod/20241104-1/2019958f416e6a006d0bebcbf773b837.jpg",
            "year": 2024
        },
        {
            "modified": {
                "time": "2024-11-03T22:23:01.000Z"
            },
            "_id": "1a01b448690083588db6c9dbc171031a",
            "name": "L\u1eddi N\u00f3i D\u1ed1i C\u1ee7a Em C\u0169ng D\u1ec5 Nghe",
            "slug": "loi-noi-doi-cua-em-cung-de-nghe",
            "origin_name": "A Beautiful Lie",
            "poster_url": "https://phimimg.com/upload/vod/20241020-1/60078d5ca118bc8398e57a1e7c052c9e.jpg",
            "thumb_url": "https://phimimg.com/upload/vod/20241020-1/90e5c8ba790ecf25cd595c5a93cc2820.jpg",
            "year": 2024
        },
        {
            "modified": {
                "time": "2024-11-03T11:26:50.000Z"
            },
            "_id": "b7e0f3c8cbc0db30c775aa3c2c74b3a8",
            "name": "T\u1eadn Th\u1ebf Z: Kh\u1edfi Ngu\u1ed3n \u0110\u1ea1i D\u1ecbch",
            "slug": "tan-the-z-khoi-nguon-dai-dich",
            "origin_name": "Apocalypse Z: The Beginning of the End",
            "poster_url": "https://phimimg.com/upload/vod/20241102-1/a1ccb430973076351099962a296bbe13.jpg",
            "thumb_url": "https://phimimg.com/upload/vod/20241102-1/302f263b4ef5696a94ce9262162ac3b1.jpg",
            "year": 2024
        },
        {
            "modified": {
                "time": "2024-11-03T11:25:02.000Z"
            },
            "_id": "4849ef4e3811c4b64c2029b7f6f67139",
            "name": "Q\u00fay C\u00f4 B\u1ecd C\u1ea1p",
            "slug": "quy-co-bo-cap",
            "origin_name": "Lady Scorpions",
            "poster_url": "https://phimimg.com/upload/vod/20241103-1/391cd24f7de65a0243d8952b2fe312cd.jpg",
            "thumb_url": "https://phimimg.com/upload/vod/20241103-1/c69fd4b3b3f3fbc6055f0e7af3002d68.jpg",
            "year": 2024
        },
        {
            "modified": {
                "time": "2024-11-03T11:24:52.000Z"
            },
            "_id": "9137d1abcaf9bf4fa41416863f1d3ad1",
            "name": "Bu\u00f4ng B\u1ecf",
            "slug": "buong-bo",
            "origin_name": "Let Go",
            "poster_url": "https://phimimg.com/upload/vod/20241103-1/0105f2be068851a86c86ab9ce4b4fa08.jpg",
            "thumb_url": "https://phimimg.com/upload/vod/20241103-1/52ca37c560dfb242f55e07bfeea5075c.jpg",
            "year": 2024
        },
        {
            "modified": {
                "time": "2024-11-03T11:24:43.000Z"
            },
            "_id": "4ddb6f74a1c9119602bc9053b5f2b4f3",
            "name": "Cu\u1ed9c T\u00ecnh Tay Ba",
            "slug": "cuoc-tinh-tay-ba",
            "origin_name": "Salisihan",
            "poster_url": "https://phimimg.com/upload/vod/20241103-1/8622b6393f89086742ddd484c5ed9d9a.jpg",
            "thumb_url": "https://phimimg.com/upload/vod/20241103-1/4043cdf0054a5a14860f66a3122ef293.jpg",
            "year": 2024
        },
        {
            "modified": {
                "time": "2024-11-03T11:24:32.000Z"
            },
            "_id": "5731219bff5a342d1ae1d7997b0cad6a",
            "name": "Cu\u1ed9c T\u00ecnh Thay Phi\u00ean",
            "slug": "cuoc-tinh-thay-phien",
            "origin_name": "Salitan",
            "poster_url": "https://phimimg.com/upload/vod/20241103-1/d12fa4a5b6e1ab39363cc3150709ed77.jpg",
            "thumb_url": "https://phimimg.com/upload/vod/20241103-1/6e18cad0e231faa82a04d9286ac26636.jpg",
            "year": 2024
        },
        {
            "modified": {
                "time": "2024-11-03T11:24:21.000Z"
            },
            "_id": "460eb45f1f9b67a58c96a73be551f37b",
            "name": "Ph\u1ea7n \u0110\u1ea5t C\u1ee7a Salem",
            "slug": "phan-dat-cua-salem",
            "origin_name": "Salem's Lot",
            "poster_url": "https://phimimg.com/upload/vod/20241103-1/b3a9c43d56e90456bc836f19bbc30672.jpg",
            "thumb_url": "https://phimimg.com/upload/vod/20241103-1/d430c89403be4702dce4837efd8a022c.jpg",
            "year": 2024
        },
        {
            "modified": {
                "time": "2024-11-03T11:24:11.000Z"
            },
            "_id": "3ac44bdb7fb0bbd5c8b3f4db0218d05e",
            "name": "Ph\u00f9 Th\u1ee7y H\u1ed3i Sinh",
            "slug": "phu-thuy-hoi-sinh",
            "origin_name": "Seven Cemeteries",
            "poster_url": "https://phimimg.com/upload/vod/20241103-1/3798e9d9efeb85e2be769cc7f6c9f1bb.jpg",
            "thumb_url": "https://phimimg.com/upload/vod/20241103-1/4c5d6d3644d3296b2515f86d5dfab5ac.jpg",
            "year": 2024
        }
    ],
    "pagination": {
        "totalItems": 20645,
        "totalItemsPerPage": 10,
        "currentPage": 141,
        "totalPages": 2065
    }
}