{
    "status": true,
    "items": [
        {
            "modified": {
                "time": "2024-11-09T11:28:14.000Z"
            },
            "_id": "946d0a5d15b2453834ed5400b57c89c9",
            "name": "Thi\u00ean S\u1ee9 Nh\u00e0 B\u00ean (Ph\u1ea7n 1)",
            "slug": "thien-su-nha-ben-phan-1",
            "origin_name": "The Angel Next Door Spoils Me Rotten (Season 1)",
            "poster_url": "https://phimimg.com/upload/vod/20241109-1/d793105f2888af0a137003fa4982daf2.jpg",
            "thumb_url": "https://phimimg.com/upload/vod/20241109-1/d36f420eae1baea249c18d64e211a0a2.jpg",
            "year": 2023
        },
        {
            "modified": {
                "time": "2024-11-09T07:35:29.000Z"
            },
            "_id": "23f1d15c461a87be388777aef426538a",
            "name": "K\u1ebb C\u01b0\u1edbp T\u00ecnh Y\u00eau",
            "slug": "ke-cuop-tinh-yeu",
            "origin_name": "Amor Bandido",
            "poster_url": "https://phimimg.com/upload/vod/20241109-1/2967eabc2e333e0437a53ea5ad8a46c9.jpg",
            "thumb_url": "https://phimimg.com/upload/vod/20241109-1/24f3495e3fcee9bf33d31a9611c82192.jpg",
            "year": 2021
        },
        {
            "modified": {
                "time": "2024-11-09T07:34:20.000Z"
            },
            "_id": "c974b58d1b0df79a20503c23e67cea69",
            "name": "Tu\u1ed5i D\u1eady Th\u00ec",
            "slug": "tuoi-day-thi",
            "origin_name": "Ken Park",
            "poster_url": "https://phimimg.com/upload/vod/20231212-1/1b22d2a54d32cae00e51448a00b0dc0d.jpg",
            "thumb_url": "https://phimimg.com/upload/vod/20231212-1/e14a7b42d315a6d39462f1b045340b3f.jpg",
            "year": 2002
        },
        {
            "modified": {
                "time": "2024-11-09T07:31:40.000Z"
            },
            "_id": "77ebef784ecdb4ce5591340311adb2e9",
            "name": "B\u1ea1ch Ph\u00e1t V\u01b0\u01a1ng Phi",
            "slug": "bach-phat-vuong-phi",
            "origin_name": "Princess Silver",
            "poster_url": "https://phimimg.com/upload/vod/20241108-1/2606d6ca07a9be8a4a7116b2ee23e15e.jpg",
            "thumb_url": "https://phimimg.com/upload/vod/20241108-1/d2b8de8fbfc7d9d8073b0d7597e802e6.jpg",
            "year": 2019
        },
        {
            "modified": {
                "time": "2024-11-09T07:30:10.000Z"
            },
            "_id": "939a391a1ac9a3431f2d78e83bd8b856",
            "name": "Qu\u00fd \u00d4ng Plankton",
            "slug": "quy-ong-plankton",
            "origin_name": "Mr. Plankton",
            "poster_url": "https://phimimg.com/upload/vod/20241108-1/12e06045cf1aba5d94fe9af0bb3cb452.jpg",
            "thumb_url": "https://phimimg.com/upload/vod/20241108-1/93323da9dff11317b8006a609d3387f0.jpg",
            "year": 2024
        },
        {
            "modified": {
                "time": "2024-11-09T07:29:24.000Z"
            },
            "_id": "c7e791b16611deca87a347c22ce64e11",
            "name": "Lee San Tri\u1ec1u \u0110\u1ea1i Chosun",
            "slug": "lee-san-trieu-dai-chosun",
            "origin_name": "Lee San Wind Of The Palace",
            "poster_url": "https://phimimg.com/upload/vod/20241108-1/2972d48448f350c686cc8b83539da732.jpg",
            "thumb_url": "https://phimimg.com/upload/vod/20241108-1/b0e05edf159b28893309bc889ebe025c.jpg",
            "year": 2007
        },
        {
            "modified": {
                "time": "2024-11-08T18:00:42.000Z"
            },
            "_id": "8371d58a2140475594cb7a1c22f0baaa",
            "name": "M\u1ed9t M\u00ecnh V\u1eabn \u1ed4n",
            "slug": "mot-minh-van-on",
            "origin_name": "Single In Seoul",
            "poster_url": "https://phimimg.com/upload/vod/20241108-1/736082bb264bfec3cca93d6f29809941.jpg",
            "thumb_url": "https://phimimg.com/upload/vod/20241108-1/204507269abd3a694a22f4eaeba37e72.jpg",
            "year": 2023
        },
        {
            "modified": {
                "time": "2024-11-08T17:19:07.000Z"
            },
            "_id": "04dd226bd2e13b65115869b3307bc5ce",
            "name": "N\u1eef Quan \u0110\u1ea1i Nh\u00e2n Xin Ch\u1ec9 Gi\u00e1o Nhi\u1ec1u H\u01a1n",
            "slug": "nu-quan-dai-nhan-xin-chi-giao-nhieu-hon",
            "origin_name": "Ancient Workplace, Love Handbook",
            "poster_url": "https://phimimg.com/upload/vod/20241021-1/a14deefc945af83485569b9ba3d6b47c.jpg",
            "thumb_url": "https://phimimg.com/upload/vod/20241021-1/4bcffa9fe2e24cd45fd891452bb159e8.jpg",
            "year": 2024
        },
        {
            "modified": {
                "time": "2024-11-08T14:09:35.000Z"
            },
            "_id": "976f1ecb676aa1bb3bb86ed84e79cdfa",
            "name": "B\u00ed M\u1eadt Trang Tr\u1ea1i Nho",
            "slug": "bi-mat-trang-trai-nho",
            "origin_name": "Wineville",
            "poster_url": "https://phimimg.com/upload/vod/20241108-1/0ef1313fbf8d0099baebf6619e438308.jpg",
            "thumb_url": "https://phimimg.com/upload/vod/20241108-1/556e8341d4bb5ce967ca922b681a1df2.jpg",
            "year": 2023
        },
        {
            "modified": {
                "time": "2024-11-08T14:09:24.000Z"
            },
            "_id": "7fc7b7979ce9c02bb7a36e5500726053",
            "name": "H\u1eb9n H\u00f2 V\u1edbi \u00d4ng Gi\u00e0 Tuy\u1ebft",
            "slug": "hen-ho-voi-ong-gia-tuyet",
            "origin_name": "Dating Santa",
            "poster_url": "https://phimimg.com/upload/vod/20241108-1/69706b6c2010701186de041766a4d81d.jpg",
            "thumb_url": "https://phimimg.com/upload/vod/20241108-1/1a848de99a21dbec9eefc9a11c0db3d0.jpg",
            "year": 2023
        }
    ],
    "pagination": {
        "totalItems": 20645,
        "totalItemsPerPage": 10,
        "currentPage": 123,
        "totalPages": 2065
    }
}