{
    "status": true,
    "items": [
        {
            "modified": {
                "time": "2024-11-08T14:09:15.000Z"
            },
            "_id": "40e058330f014c529b23bcb157f7da4a",
            "name": "H\u1eb9n G\u1eb7p Gi\u00e1ng Sinh Sau",
            "slug": "hen-gap-giang-sinh-sau",
            "origin_name": "Meet Me Next Christmas",
            "poster_url": "https://phimimg.com/upload/vod/20241108-1/bd1bd1b12a77f1189c115dd742a4b244.jpg",
            "thumb_url": "https://phimimg.com/upload/vod/20241108-1/994a2df1ff31fb4565bccbf5b05d0bd8.jpg",
            "year": 2024
        },
        {
            "modified": {
                "time": "2024-11-08T14:09:04.000Z"
            },
            "_id": "d2ee7c802d33276b97b3298931e82303",
            "name": "D\u00f2ng Ch\u1ea3y Th\u1eddi Gian",
            "slug": "dong-chay-thoi-gian",
            "origin_name": "Pedro P\u00e1ramo",
            "poster_url": "https://phimimg.com/upload/vod/20241108-1/b6d663d07b2d79db6dc2cfacc90b5938.jpg",
            "thumb_url": "https://phimimg.com/upload/vod/20241108-1/61967ea1397d66f0540d486e007f07da.jpg",
            "year": 2024
        },
        {
            "modified": {
                "time": "2024-11-08T14:08:53.000Z"
            },
            "_id": "e936cd0726594710711f6be2a3fc1ddf",
            "name": "10 ng\u00e0y c\u1ee7a m\u1ed9t ng\u01b0\u1eddi t\u00f2 m\u00f2",
            "slug": "10-ngay-cua-mot-nguoi-to-mo",
            "origin_name": "10 Days of a Curious Man",
            "poster_url": "https://phimimg.com/upload/vod/20241108-1/e1922cc0417f32da7fc548322bc20e78.jpg",
            "thumb_url": "https://phimimg.com/upload/vod/20241108-1/08bde3e23ce44eef65d592cb6ee32fb5.jpg",
            "year": 2024
        },
        {
            "modified": {
                "time": "2024-11-08T14:08:42.000Z"
            },
            "_id": "58531c85829c056175c3c27c7360e9fd",
            "name": "Ch\u1ecb \u0110\u00e3 Th\u00e0nh C\u00f4ng Thu H\u00fat S\u1ef1 Ch\u00fa \u00dd C\u1ee7a T\u00f4i",
            "slug": "chi-da-thanh-cong-thu-hut-su-chu-y-cua-toi",
            "origin_name": "My Dear Lady",
            "poster_url": "https://phimimg.com/upload/vod/20241108-1/c36409cffafe9e6ac034ecbeec87f1d2.jpg",
            "thumb_url": "https://phimimg.com/upload/vod/20241108-1/7202f4040cd8e9730117160dcb13defb.jpg",
            "year": 2020
        },
        {
            "modified": {
                "time": "2024-11-08T14:08:25.000Z"
            },
            "_id": "9a2e8514e94644ccfdd458ab892635e0",
            "name": "Kim T\u1ecbch H\u00e0 T\u1ecbch",
            "slug": "kim-tich-ha-tich",
            "origin_name": "Twisted Fate of Love",
            "poster_url": "https://phimimg.com/upload/vod/20241108-1/d78328fef2a76666431b064fa1731d58.jpg",
            "thumb_url": "https://phimimg.com/upload/vod/20241108-1/ccb3999feda3f6ce1d066f3f6aee0405.jpg",
            "year": 2020
        },
        {
            "modified": {
                "time": "2024-11-08T14:08:09.000Z"
            },
            "_id": "b90010f47ac493fc027e5727059032d4",
            "name": "C\u00e2u Chuy\u1ec7n Trong H\u1ea1nh Ph\u00fac",
            "slug": "cau-chuyen-trong-hanh-phuc",
            "origin_name": "Spring in Happiness",
            "poster_url": "https://phimimg.com/upload/vod/20241108-1/3bc6c9e7868d6ad2b3578756b1934785.jpg",
            "thumb_url": "https://phimimg.com/upload/vod/20241108-1/9f5feafe5dcaa422f33a25400920dd8b.jpg",
            "year": 2020
        },
        {
            "modified": {
                "time": "2024-11-08T14:07:51.000Z"
            },
            "_id": "2a519dc383bbb4f07ad74720bb1a5fbf",
            "name": "Ch\u1eb7ng \u0110\u01b0\u1eddng \u1ea4m \u00c1p",
            "slug": "chang-duong-am-ap",
            "origin_name": "Always Warm",
            "poster_url": "https://phimimg.com/upload/vod/20241108-1/d20b4ebdd309e1325c75319c096fdda7.jpg",
            "thumb_url": "https://phimimg.com/upload/vod/20241108-1/3dc0d744f71ff567c7e4b8a9821a2b0b.jpg",
            "year": 2020
        },
        {
            "modified": {
                "time": "2024-11-08T14:07:35.000Z"
            },
            "_id": "15cf5f505ec38de721bfc1036ae585aa",
            "name": "Tr\u1edf L\u1ea1i Tu\u1ed5i 18",
            "slug": "tro-lai-tuoi-18",
            "origin_name": "18 Again",
            "poster_url": "https://phimimg.com/upload/vod/20241108-1/42bfa66fffec747c747a881ee6f682bb.jpg",
            "thumb_url": "https://phimimg.com/upload/vod/20241108-1/abdd359b45848c90798c88af2efa42ba.jpg",
            "year": 2020
        },
        {
            "modified": {
                "time": "2024-11-08T14:07:19.000Z"
            },
            "_id": "83f075354ac93f60d1c1ac9a15399196",
            "name": "Th\u1ee3 S\u0103n T\u00e2m Tr\u1ea1ch",
            "slug": "tho-san-tam-trach",
            "origin_name": "Psych-Hunter",
            "poster_url": "https://phimimg.com/upload/vod/20241108-1/192a092688bcb7ad078c781232b4a387.jpg",
            "thumb_url": "https://phimimg.com/upload/vod/20241108-1/15e69fedd1eded630ca31813892e9f06.jpg",
            "year": 2020
        },
        {
            "modified": {
                "time": "2024-11-08T14:06:57.000Z"
            },
            "_id": "085a2f56bfb27cb2e44ef3c457591b96",
            "name": "\u0110\u1ea1i Hi\u1ec7p Ho\u1eafc Nguy\u00ean Gi\u00e1p",
            "slug": "dai-hiep-hoac-nguyen-giap",
            "origin_name": "Heroes",
            "poster_url": "https://phimimg.com/upload/vod/20241108-1/449faef0bd3071a99e1fcb47704231c6.jpg",
            "thumb_url": "https://phimimg.com/upload/vod/20241108-1/4a38930d8ebdff18cc1c820b70f60982.jpg",
            "year": 2020
        }
    ],
    "pagination": {
        "totalItems": 20645,
        "totalItemsPerPage": 10,
        "currentPage": 124,
        "totalPages": 2065
    }
}