{
    "status": true,
    "items": [
        {
            "modified": {
                "time": "2024-11-02T15:03:42.000Z"
            },
            "_id": "f4e6bccbee6057b26de5f252fa76f847",
            "name": "Tim Robinson: T\u00f4i Ngh\u0129 B\u1ea1n N\u00ean Ra V\u1ec1 (Ph\u1ea7n 1)",
            "slug": "tim-robinson-toi-nghi-ban-nen-ra-ve-phan-1",
            "origin_name": "I Think You Should Leave With Tim Robinson (Season 1)",
            "poster_url": "https://phimimg.com/upload/vod/20241102-1/fe7f70bc19d16d4079652d4a8e5d2c8f.jpg",
            "thumb_url": "https://phimimg.com/upload/vod/20241102-1/46146659ce0e723d23f7f16bfc030e35.jpg",
            "year": 2019
        },
        {
            "modified": {
                "time": "2024-11-02T15:03:23.000Z"
            },
            "_id": "e4c0565355a8fbf03916d0bd025e02c8",
            "name": "Bulgasal: Tr\u01b0\u1eddng sinh b\u1ea5t t\u1eed",
            "slug": "bulgasal-truong-sinh-bat-tu",
            "origin_name": "Bulgasal: Immortal Souls",
            "poster_url": "https://phimimg.com/upload/vod/20241102-1/d67686b0a622ef9495925ae7ae65cbb2.jpg",
            "thumb_url": "https://phimimg.com/upload/vod/20241102-1/59eb641e514e94b8ad389b36eb88c5dd.jpg",
            "year": 2021
        },
        {
            "modified": {
                "time": "2024-11-02T15:03:04.000Z"
            },
            "_id": "831704ea3aeacc4e3e1962496fd593bf",
            "name": "V\u01b0\u1ee3t qua kh\u1ee7ng ho\u1ea3ng",
            "slug": "vuot-qua-khung-hoang",
            "origin_name": "On the Verge",
            "poster_url": "https://phimimg.com/upload/vod/20241102-1/cab684e1ce71a4ac9d15abc867670a7a.jpg",
            "thumb_url": "https://phimimg.com/upload/vod/20241102-1/00bbc3becff4967015408ae2f1919e96.jpg",
            "year": 2021
        },
        {
            "modified": {
                "time": "2024-11-02T15:02:03.000Z"
            },
            "_id": "2bbd84c0a50aedc1df983f360efd12d0",
            "name": "Post Mortem: Kh\u00f4ng ai ch\u1ebft \u1edf Skarnes",
            "slug": "post-mortem-khong-ai-chet-o-skarnes",
            "origin_name": "Post Mortem: No One Dies in Skarnes",
            "poster_url": "https://phimimg.com/upload/vod/20241102-1/1a5e84744c32fc8e276dbe7ff10eb753.jpg",
            "thumb_url": "https://phimimg.com/upload/vod/20241102-1/dcb7997094a163d23526d932d9af31fa.jpg",
            "year": 2021
        },
        {
            "modified": {
                "time": "2024-11-02T15:01:43.000Z"
            },
            "_id": "0677c70d21ee1ffd2ec01560ce0914cb",
            "name": "B\u1ed9 5 ra qu\u00e2n",
            "slug": "bo-5-ra-quan",
            "origin_name": "Starting 5",
            "poster_url": "https://phimimg.com/upload/vod/20241102-1/458ffe4f87913443ddd236ed7c5886b8.jpg",
            "thumb_url": "https://phimimg.com/upload/vod/20241102-1/758080b0d16c2760ddc825e325ea97c6.jpg",
            "year": 2024
        },
        {
            "modified": {
                "time": "2024-11-02T15:01:24.000Z"
            },
            "_id": "d4469ef60d8c2f45230bdb7ca7e3e053",
            "name": "Chi\u1ebfn B\u1ea1i",
            "slug": "chien-bai",
            "origin_name": "Shadowplay",
            "poster_url": "https://phimimg.com/upload/vod/20241102-1/091fc7dc8a832ba83e0bdae431effe67.jpg",
            "thumb_url": "https://phimimg.com/upload/vod/20241102-1/21e0f026d68d00fd732cc36ffec6c11f.jpg",
            "year": 2020
        },
        {
            "modified": {
                "time": "2024-11-02T15:01:06.000Z"
            },
            "_id": "4e370d57ccc4153f2fd28fab7ddacd60",
            "name": "\u00c2m m\u01b0u M\u1ef9: \u00c1n m\u1ea1ng B\u1ea1ch tu\u1ed9c",
            "slug": "am-muu-my-an-mang-bach-tuoc",
            "origin_name": "American Conspiracy: The Octopus Murders",
            "poster_url": "https://phimimg.com/upload/vod/20241102-1/fc219b38efbc57f857c1c3938bfeb21c.jpg",
            "thumb_url": "https://phimimg.com/upload/vod/20241102-1/11ec7e4a1a09d69531d533f933163de0.jpg",
            "year": 2024
        },
        {
            "modified": {
                "time": "2024-11-02T15:00:43.000Z"
            },
            "_id": "14663816a87ff1539e548004e8c4c7be",
            "name": "Ng\u01b0\u1eddi Y\u00eau D\u1ea5u Nh\u1ea5t",
            "slug": "nguoi-yeu-dau-nhat",
            "origin_name": "Dearest",
            "poster_url": "https://phimimg.com/upload/vod/20241102-1/596e0687965cbc669f1313baa0e26e55.jpg",
            "thumb_url": "https://phimimg.com/upload/vod/20241102-1/a1be55192518ed3a1d834f3a4e3f4e51.jpg",
            "year": 2021
        },
        {
            "modified": {
                "time": "2024-11-02T15:00:25.000Z"
            },
            "_id": "a7089a9374897ec2b499e275f31fea10",
            "name": "Bi\u1ec7t \u0111\u1ed9i si\u00eau gian",
            "slug": "biet-doi-sieu-gian",
            "origin_name": "Super Crooks",
            "poster_url": "https://phimimg.com/upload/vod/20241102-1/760174e813a5d4a744aa1f2bcbe730f0.jpg",
            "thumb_url": "https://phimimg.com/upload/vod/20241102-1/b4181dd29829e9adfc9abf4273173e34.jpg",
            "year": 2021
        },
        {
            "modified": {
                "time": "2024-11-02T15:00:02.000Z"
            },
            "_id": "bb3bbc6428ed05b694af7be42909d696",
            "name": "S\u00e1t th\u1ee7 \u0111\u1ec7 nh\u1ea5t th\u1ebf gi\u1edbi chuy\u1ec3n sinh th\u00e0nh qu\u00fd t\u1ed9c",
            "slug": "sat-thu-de-nhat-the-gioi-chuyen-sinh-thanh-quy-toc",
            "origin_name": "The World's Finest Assassin Gets Reincarnated in Another World as an Aristocrat",
            "poster_url": "https://phimimg.com/upload/vod/20241102-1/30f4b8cd46e16ef46240b25233b0c69f.jpg",
            "thumb_url": "https://phimimg.com/upload/vod/20241102-1/52f851f518c2f6d053d6ef1692cdf7c0.jpg",
            "year": 2021
        }
    ],
    "pagination": {
        "totalItems": 20645,
        "totalItemsPerPage": 10,
        "currentPage": 145,
        "totalPages": 2065
    }
}