{
    "status": true,
    "items": [
        {
            "modified": {
                "time": "2024-11-03T11:17:35.000Z"
            },
            "_id": "317d0c7aacb6d6cb0480d6e0f464f9d5",
            "name": "T\u00d4I L\u00c0 K\u1eba S\u00c1T NH\u00c2N (Ph\u1ea7n 1)",
            "slug": "toi-la-ke-sat-nhan-phan-1",
            "origin_name": "I AM A KILLER (Season 1)",
            "poster_url": "https://phimimg.com/upload/vod/20241103-1/c506c7d934f88d0b6887700d5bb00425.jpg",
            "thumb_url": "https://phimimg.com/upload/vod/20241103-1/419a638438df889f0373647d7f6be569.jpg",
            "year": 2018
        },
        {
            "modified": {
                "time": "2024-11-03T11:17:05.000Z"
            },
            "_id": "a5ff1a4d4bc44f3834181a6ca58b91c8",
            "name": "Nhu\u031b\u0303ng Ma\u0302\u0309u Ha\u0300i Ki\u0323ch Ve\u0302\u0300 Quy\u0301 Co\u0302 Da Ma\u0300u (Ph\u1ea7n 4)",
            "slug": "nhung-mau-hai-kich-ve-quy-co-da-mau-phan-4",
            "origin_name": "A Black Lady Sketch Show (Season 4)",
            "poster_url": "https://phimimg.com/upload/vod/20241102-1/22e64d9bd226b4094fa3633050eb8019.jpg",
            "thumb_url": "https://phimimg.com/upload/vod/20241102-1/83e0a52195df4588c14f36732ae7c20a.jpg",
            "year": 2023
        },
        {
            "modified": {
                "time": "2024-11-03T11:16:52.000Z"
            },
            "_id": "4682ba60cfd9bdbc779fa633fa3218d5",
            "name": "Nhu\u031b\u0303ng Ma\u0302\u0309u Ha\u0300i Ki\u0323ch Ve\u0302\u0300 Quy\u0301 Co\u0302 Da Ma\u0300u (Ph\u1ea7n 3)",
            "slug": "nhung-mau-hai-kich-ve-quy-co-da-mau-phan-3",
            "origin_name": "A Black Lady Sketch Show (Season 3)",
            "poster_url": "https://phimimg.com/upload/vod/20241102-1/d20f1f9a6fdafed8b1fd8773f64b4d61.jpg",
            "thumb_url": "https://phimimg.com/upload/vod/20241102-1/dd20f687f56a53a9968426c097e206b9.jpg",
            "year": 2022
        },
        {
            "modified": {
                "time": "2024-11-03T11:16:31.000Z"
            },
            "_id": "21fc29fd6ec2b0dfe2d55361b165e518",
            "name": "Nhu\u031b\u0303ng Ma\u0302\u0309u Ha\u0300i Ki\u0323ch Ve\u0302\u0300 Quy\u0301 Co\u0302 Da Ma\u0300u (Ph\u1ea7n 2)",
            "slug": "nhung-mau-hai-kich-ve-quy-co-da-mau-phan-2",
            "origin_name": "A Black Lady Sketch Show (Season 2)",
            "poster_url": "https://phimimg.com/upload/vod/20241102-1/95b827be85a2c83d8072167ac5c363f0.jpg",
            "thumb_url": "https://phimimg.com/upload/vod/20241102-1/34796651ade2fc8a6acc52265c06fd8b.jpg",
            "year": 2021
        },
        {
            "modified": {
                "time": "2024-11-03T11:16:14.000Z"
            },
            "_id": "c1cdf86f74b3f0c805aa4895397f1400",
            "name": "Nhu\u031b\u0303ng Ma\u0302\u0309u Ha\u0300i Ki\u0323ch Ve\u0302\u0300 Quy\u0301 Co\u0302 Da Ma\u0300u (Ph\u1ea7n 1)",
            "slug": "nhung-mau-hai-kich-ve-quy-co-da-mau-phan-1",
            "origin_name": "A Black Lady Sketch Show (Season 1)",
            "poster_url": "https://phimimg.com/upload/vod/20241102-1/7138c56ba0be5894fa5860575d4bfa8d.jpg",
            "thumb_url": "https://phimimg.com/upload/vod/20241102-1/0c63c51fcb0a49de5bdb9799f264db54.jpg",
            "year": 2019
        },
        {
            "modified": {
                "time": "2024-11-03T11:15:54.000Z"
            },
            "_id": "bd62968254eca150bde010b72e3aa9c0",
            "name": "Ga\u0303 Ho\u031b\u0323m Hi\u0303nh David Chase Va\u0300 Gia \u0110i\u0300nh Soprano",
            "slug": "ga-hom-hinh-david-chase-va-gia-dinh-soprano",
            "origin_name": "Wise Guy: David Chase and The Sopranos",
            "poster_url": "https://phimimg.com/upload/vod/20241102-1/212f49a40e8ae741001d19a851cb5e21.jpg",
            "thumb_url": "https://phimimg.com/upload/vod/20241102-1/71c9e072fcc19a67dfe8c688c319672a.jpg",
            "year": 2024
        },
        {
            "modified": {
                "time": "2024-11-03T11:15:34.000Z"
            },
            "_id": "e8aad818fe5983b60b3a41bcc9289803",
            "name": "Ngo\u0302i Nha\u0300 Cu\u0309a Saddam",
            "slug": "ngoi-nha-cua-saddam",
            "origin_name": "House of Saddam",
            "poster_url": "https://phimimg.com/upload/vod/20241102-1/7a5bc544f10fdf559ff601d212e838ff.jpg",
            "thumb_url": "https://phimimg.com/upload/vod/20241102-1/1eb63529b6fda75c6b9e48897e05c03c.jpg",
            "year": 2008
        },
        {
            "modified": {
                "time": "2024-11-03T11:15:01.000Z"
            },
            "_id": "7085e5152593f9661190914a2a094a42",
            "name": "C\u00e1ch Tr\u1edf Th\u00e0nh B\u1ea1o Ch\u00faa",
            "slug": "cach-tro-thanh-bao-chua",
            "origin_name": "How to Become a Tyrant",
            "poster_url": "https://phimimg.com/upload/vod/20241102-1/5424e86bc1fe4e192d38c7f9f66a902d.jpg",
            "thumb_url": "https://phimimg.com/upload/vod/20241102-1/04f884e4148a5984aca996a62452ac5a.jpg",
            "year": 2021
        },
        {
            "modified": {
                "time": "2024-11-03T11:14:44.000Z"
            },
            "_id": "36c0482a72d18277c1ed8e89ebe1feff",
            "name": "Sweet Bobby: \u00c1c M\u1ed9ng L\u1eeba T\u00ecnh",
            "slug": "sweet-bobby-ac-mong-lua-tinh",
            "origin_name": "Sweet Bobby: My Catfish Nightmare",
            "poster_url": "https://phimimg.com/upload/vod/20241102-1/77c405b1a277016ec22a30430a388c36.jpg",
            "thumb_url": "https://phimimg.com/upload/vod/20241102-1/786ee5bf4f77a4b7583601f436a7502a.jpg",
            "year": 2024
        },
        {
            "modified": {
                "time": "2024-11-03T11:14:29.000Z"
            },
            "_id": "31f0a067ca77d80b3704aee9141bc2ea",
            "name": "Tim Robinson: T\u00f4i Ngh\u0129 B\u1ea1n N\u00ean Ra V\u1ec1 (Ph\u1ea7n 2)",
            "slug": "tim-robinson-toi-nghi-ban-nen-ra-ve-phan-2",
            "origin_name": "I Think You Should Leave With Tim Robinson (Season 2)",
            "poster_url": "https://phimimg.com/upload/vod/20241102-1/0809dbb9eb4d47d482e1f2f2e6a089c2.jpg",
            "thumb_url": "https://phimimg.com/upload/vod/20241102-1/5f7cecacf768b6af4656793dc9d97707.jpg",
            "year": 2021
        }
    ],
    "pagination": {
        "totalItems": 20645,
        "totalItemsPerPage": 10,
        "currentPage": 143,
        "totalPages": 2065
    }
}