{
    "status": true,
    "items": [
        {
            "modified": {
                "time": "2024-11-06T12:28:16.000Z"
            },
            "_id": "7735e310a8f8a4de2430338dfae18359",
            "name": "Ng\u01b0\u1eddi Y\u00eau C\u1ee7a T\u00f4i L\u00e0 Gi\u00e1n \u0110i\u1ec7p",
            "slug": "nguoi-yeu-cua-toi-la-gian-diep",
            "origin_name": "The Spies Who Loved Me",
            "poster_url": "https://phimimg.com/upload/vod/20241106-1/5cc3e505723cb692f88731c3c424ed59.jpg",
            "thumb_url": "https://phimimg.com/upload/vod/20241106-1/303f878f7f610330a2f505dd529017b1.jpg",
            "year": 2020
        },
        {
            "modified": {
                "time": "2024-11-06T12:27:59.000Z"
            },
            "_id": "acac6e55a8890cb2666e7352729b18f1",
            "name": "Qu\u00e2n Trang Th\u00e2n Y\u00eau",
            "slug": "quan-trang-than-yeu",
            "origin_name": "My Dear Guardian",
            "poster_url": "https://phimimg.com/upload/vod/20241106-1/58c3ad35774b1b5215bf1768125e63b7.jpg",
            "thumb_url": "https://phimimg.com/upload/vod/20241106-1/ee2e6b3a949ffe3dd5260a8f12402848.jpg",
            "year": 2021
        },
        {
            "modified": {
                "time": "2024-11-06T12:27:43.000Z"
            },
            "_id": "6c0ffea2dc26e3e5f85302514be3c697",
            "name": "Ch\u00fa Ng\u1ef1a Spirit: T\u1ef1 Do Rong Ru\u1ed5i - Tr\u01b0\u1eddng H\u1ecdc C\u01b0\u1ee1i Ng\u1ef1a (Ph\u1ea7n 2)",
            "slug": "chu-ngua-spirit-tu-do-rong-ruoi-truong-hoc-cuoi-ngua-phan-2",
            "origin_name": "Spirit Riding Free: Riding Academy (Season 2)",
            "poster_url": "https://phimimg.com/upload/vod/20241106-1/2a7d5242e4b50bec44d6ca5626ca4c37.jpg",
            "thumb_url": "https://phimimg.com/upload/vod/20241106-1/0dbaea293f2991c2d8509f9b2dea0935.jpg",
            "year": 2020
        },
        {
            "modified": {
                "time": "2024-11-06T12:27:33.000Z"
            },
            "_id": "841062598995b44b071fb4d5f73a5566",
            "name": "Ch\u00fa Ng\u1ef1a Spirit: T\u1ef1 Do Rong Ru\u1ed5i - Tr\u01b0\u1eddng H\u1ecdc C\u01b0\u1ee1i Ng\u1ef1a (Ph\u1ea7n 1)",
            "slug": "chu-ngua-spirit-tu-do-rong-ruoi-truong-hoc-cuoi-ngua-phan-1",
            "origin_name": "Spirit Riding Free: Riding Academy (Season 1)",
            "poster_url": "https://phimimg.com/upload/vod/20241106-1/7903fa6cc2878bcf133fc44a18a5a234.jpg",
            "thumb_url": "https://phimimg.com/upload/vod/20241106-1/cc7f9cbd85f33cd8f95963e46fcc0af0.jpg",
            "year": 2020
        },
        {
            "modified": {
                "time": "2024-11-06T12:27:09.000Z"
            },
            "_id": "cda6eea50e92e0d0b6d22b6b54364ff0",
            "name": "Ch\u00ednh Tr\u1ecb Gia (Ph\u1ea7n 2)",
            "slug": "chinh-tri-gia-phan-2",
            "origin_name": "The Politician (Season 2)",
            "poster_url": "https://phimimg.com/upload/vod/20241106-1/060aa458e53e80970c8c7e0bfcbc2e00.jpg",
            "thumb_url": "https://phimimg.com/upload/vod/20241106-1/c8585f5a862dfe0cf8454ee09e91393e.jpg",
            "year": 2020
        },
        {
            "modified": {
                "time": "2024-11-06T12:26:58.000Z"
            },
            "_id": "71541653edfd81ee0ae62fb1fd1be011",
            "name": "Ch\u00ednh Tr\u1ecb Gia (Ph\u1ea7n 1)",
            "slug": "chinh-tri-gia-phan-1",
            "origin_name": "The Politician (Season 1)",
            "poster_url": "https://phimimg.com/upload/vod/20241106-1/9f1a5291b310b10bf2a231dc007dab41.jpg",
            "thumb_url": "https://phimimg.com/upload/vod/20241106-1/377cae826442b724e59420596a6db6b0.jpg",
            "year": 2019
        },
        {
            "modified": {
                "time": "2024-11-06T12:26:38.000Z"
            },
            "_id": "729b4e7a67f295ec3b2b0ba1e08f2547",
            "name": "H\u1ecdc Vi\u1ec7n Greenhouse (Ph\u1ea7n 4)",
            "slug": "hoc-vien-greenhouse-phan-4",
            "origin_name": "Greenhouse Academy (Season 4)",
            "poster_url": "https://phimimg.com/upload/vod/20241106-1/2970c2d348e4de023a78b2dc56c2df13.jpg",
            "thumb_url": "https://phimimg.com/upload/vod/20241106-1/bf96563f06087776b556032026cecf1b.jpg",
            "year": 2020
        },
        {
            "modified": {
                "time": "2024-11-06T12:26:27.000Z"
            },
            "_id": "90fa69c82c06e9f12bb739cf7ea53fe4",
            "name": "H\u1ecdc Vi\u1ec7n Greenhouse (Ph\u1ea7n 2)",
            "slug": "hoc-vien-greenhouse-phan-2",
            "origin_name": "Greenhouse Academy (Season 2)",
            "poster_url": "https://phimimg.com/upload/vod/20241106-1/44a31a5e17caf994219c86db430c8adb.jpg",
            "thumb_url": "https://phimimg.com/upload/vod/20241106-1/c0c8075fdc30ca39640ec4a92fed508c.jpg",
            "year": 2018
        },
        {
            "modified": {
                "time": "2024-11-06T12:26:15.000Z"
            },
            "_id": "0ba30102f8ef812e067394a2cb524ca0",
            "name": "H\u1ecdc Vi\u1ec7n Greenhouse (Ph\u1ea7n 1)",
            "slug": "hoc-vien-greenhouse-phan-1",
            "origin_name": "Greenhouse Academy (Season 1)",
            "poster_url": "https://phimimg.com/upload/vod/20241106-1/e3f8d578aeb554fd36d8768afa63370e.jpg",
            "thumb_url": "https://phimimg.com/upload/vod/20241106-1/3d6f06e16aff33e93dd77ad23de8ae6b.jpg",
            "year": 2017
        },
        {
            "modified": {
                "time": "2024-11-06T12:25:56.000Z"
            },
            "_id": "b0b69b8461334c26e055962b31af6c16",
            "name": "Caliphate",
            "slug": "caliphate",
            "origin_name": "Caliphate",
            "poster_url": "https://phimimg.com/upload/vod/20241106-1/23620ea46885cbc93c5b7541f4aa709b.jpg",
            "thumb_url": "https://phimimg.com/upload/vod/20241106-1/48767d3ec42423c2d89d114c832c5d4f.jpg",
            "year": 2020
        }
    ],
    "pagination": {
        "totalItems": 20645,
        "totalItemsPerPage": 10,
        "currentPage": 130,
        "totalPages": 2065
    }
}