{
    "status": true,
    "items": [
        {
            "modified": {
                "time": "2024-11-04T20:39:08.000Z"
            },
            "_id": "98908fce27744e259d6b7d7bb87de294",
            "name": "Laplae Th\u1ecb Tr\u1ea5n \u1ea8n Gi\u1ea5u",
            "slug": "laplae-thi-tran-an-giau",
            "origin_name": "Laplae The Hidden Town",
            "poster_url": "https://phimimg.com/upload/vod/20240922-1/2eaffedd78582f62802b3475bc131f01.jpg",
            "thumb_url": "https://phimimg.com/upload/vod/20240922-1/884b7ca6d1fb50987c7f8bba8d0fc38b.jpg",
            "year": 2024
        },
        {
            "modified": {
                "time": "2024-11-04T17:58:48.000Z"
            },
            "_id": "dfe8df8fc9712f0825e6c949470567b7",
            "name": "V\u00f4 Gian \u0110\u1ea1o",
            "slug": "vo-gian-dao-2016",
            "origin_name": "Infernal Affairs",
            "poster_url": "https://phimimg.com/upload/vod/20241104-1/431c6903bbcdd049090e7edffcdce289.webp",
            "thumb_url": "https://phimimg.com/upload/vod/20241104-1/d8ea1ffc6368fe72576fea3521466a77.jpg",
            "year": 2016
        },
        {
            "modified": {
                "time": "2024-11-04T17:58:33.000Z"
            },
            "_id": "927b1d4320751e087a28f478ac757a9c",
            "name": "Thi\u00ean Linh C\u00e1i: Chuy\u1ec7n Ch\u01b0a K\u1ec3",
            "slug": "thien-linh-cai-chuyen-chua-ke-2019",
            "origin_name": "Kumanthong The Untold Story",
            "poster_url": "https://phimimg.com/upload/vod/20241104-1/41bcc2149b920cb26d8da62fded644c8.jpg",
            "thumb_url": "https://phimimg.com/upload/vod/20241104-1/e83548a14780771ac1bb4d86790b3df1.jpg",
            "year": 2019
        },
        {
            "modified": {
                "time": "2024-11-04T17:58:14.000Z"
            },
            "_id": "8625af362985c33b7525678f3536b1b1",
            "name": "T\u00e1i Sinh",
            "slug": "tai-sinh-2022",
            "origin_name": "Rebirth",
            "poster_url": "https://phimimg.com/upload/vod/20241104-1/f3d350fc049f0ef049ec14264d5afeca.jpg",
            "thumb_url": "https://phimimg.com/upload/vod/20241104-1/14894bbb6844bc8ffda553e6fbe79ff2.jpg",
            "year": 2022
        },
        {
            "modified": {
                "time": "2024-11-04T11:20:43.000Z"
            },
            "_id": "8eb6146109901d8476f13b19f5706203",
            "name": "V\u00e1n B\u00e0i \u0110\u1ecbnh M\u1ec7nh",
            "slug": "van-bai-dinh-menh",
            "origin_name": "All In",
            "poster_url": "https://phimimg.com/upload/vod/20241104-1/3729a58cf39449f0d960a78d5d2050f9.jpg",
            "thumb_url": "https://phimimg.com/upload/vod/20241104-1/2954b337f581af7cd0d460fa6288ba16.jpg",
            "year": 2003
        },
        {
            "modified": {
                "time": "2024-11-04T11:16:11.000Z"
            },
            "_id": "b54b25d3e55ecd6033db40a728a21ca1",
            "name": "V\u00ec Nh\u1eefng G\u00ec Ta \u0110\u00e3 Y\u00eau",
            "slug": "vi-nhung-gi-ta-da-yeu",
            "origin_name": "All That We Loved",
            "poster_url": "https://phimimg.com/upload/vod/20241104-1/96b00469107ad79a6e349e76f8b88079.jpg",
            "thumb_url": "https://phimimg.com/upload/vod/20241104-1/e2c10d50514eeb491c958d86130bfc62.jpg",
            "year": 2023
        },
        {
            "modified": {
                "time": "2024-11-04T11:13:50.000Z"
            },
            "_id": "9f60f15f6029190a80a3f9c046ab00d2",
            "name": "Tr\u00e0 Xanh \u0110\u1ea5u Si\u00eau L\u1eeba",
            "slug": "tra-xanh-dau-sieu-lua",
            "origin_name": "Greentea Bitch Feat Super Trick",
            "poster_url": "https://phimimg.com/upload/vod/20241104-1/e6d14d71fe4ca80354304a3ff53a5d39.jpg",
            "thumb_url": "https://phimimg.com/upload/vod/20241104-1/00b006d6f5903116e29f48443838fb46.jpg",
            "year": 2022
        },
        {
            "modified": {
                "time": "2024-11-04T11:11:23.000Z"
            },
            "_id": "7f7c931315f7f6d9630177949243d2e2",
            "name": "Th\u1eddi Hoa D\u1ea1i",
            "slug": "thoi-hoa-dai",
            "origin_name": "Those Were The Days",
            "poster_url": "https://phimimg.com/upload/vod/20241104-1/b2b494aa30c37350fd12ac09d29af71b.jpg",
            "thumb_url": "https://phimimg.com/upload/vod/20241104-1/2993ee642bb78e9c7273b7f21fd7b98b.jpg",
            "year": 2022
        },
        {
            "modified": {
                "time": "2024-11-04T11:02:28.000Z"
            },
            "_id": "d84f9ebccf1b062f6dce85d56fe09420",
            "name": "Ng\u01b0\u1eddi \u0110\u1ecdc K\u00fd \u1ee8c",
            "slug": "nguoi-doc-ky-uc",
            "origin_name": "Memorist",
            "poster_url": "https://phimimg.com/upload/vod/20241104-1/330fa99c0de8a91d0e61fa9693e1e2dc.jpg",
            "thumb_url": "https://phimimg.com/upload/vod/20241104-1/50069a16e9cd4bb9c299073337373750.jpg",
            "year": 2020
        },
        {
            "modified": {
                "time": "2024-11-04T11:00:06.000Z"
            },
            "_id": "cacfd29f3d3396d54a6257286e2138e1",
            "name": "Tuy\u1ebft S\u01a1n Phi H\u1ed3",
            "slug": "tuyet-son-phi-ho",
            "origin_name": "Fox Volant Of The Snowy",
            "poster_url": "https://phimimg.com/upload/vod/20241104-1/585d75d0badcd803dba2f7acfee9b4b3.jpg",
            "thumb_url": "https://phimimg.com/upload/vod/20241104-1/dd48ecb48de3860a75daf545ffe44f7c.jpg",
            "year": 2007
        }
    ],
    "pagination": {
        "totalItems": 20645,
        "totalItemsPerPage": 10,
        "currentPage": 137,
        "totalPages": 2065
    }
}