{
    "status": true,
    "items": [
        {
            "modified": {
                "time": "2024-11-08T05:32:14.000Z"
            },
            "_id": "a0ea4e0a2ec1bdc5625b3e941e7ab287",
            "name": "Th\u1ea7y Gi\u00e1o Iglesias (Ph\u1ea7n 1)",
            "slug": "thay-giao-iglesias-phan-1",
            "origin_name": "Mr. Iglesias (Season 1)",
            "poster_url": "https://phimimg.com/upload/vod/20241108-1/1f51bc3ad7a2a3f55a2680cd4e644f8b.jpg",
            "thumb_url": "https://phimimg.com/upload/vod/20241108-1/501eae11d8ff708860c2bab93bfcb2ff.jpg",
            "year": 2019
        },
        {
            "modified": {
                "time": "2024-11-08T05:31:53.000Z"
            },
            "_id": "47f64e755012d2865986a027f473d3c3",
            "name": "\u0110\u00e0o tho\u00e1t t\u1edbi h\u1ed3 Vongozero",
            "slug": "dao-thoat-toi-ho-vongozero",
            "origin_name": "To the Lake",
            "poster_url": "https://phimimg.com/upload/vod/20241108-1/50812f9902016d0b23f66cabf880e16b.jpg",
            "thumb_url": "https://phimimg.com/upload/vod/20241108-1/f41f0bf718bba5f0b4b57eea56174b9f.jpg",
            "year": 2019
        },
        {
            "modified": {
                "time": "2024-11-08T05:31:38.000Z"
            },
            "_id": "bcbe273f4a8b880191c91c0b27cc66df",
            "name": "Chico Bon Bon: Ch\u00fa Kh\u1ec9 V\u00e0 Th\u1eaft L\u01b0ng \u0110\u1ed3 Ngh\u1ec1 (Ph\u1ea7n 3)",
            "slug": "chico-bon-bon-chu-khi-va-that-lung-do-nghe-phan-3",
            "origin_name": "Chico Bon Bon: Monkey With A Tool Belt (Season 3)",
            "poster_url": "https://phimimg.com/upload/vod/20241108-1/842064267c01fda99577be29cb35da10.jpg",
            "thumb_url": "https://phimimg.com/upload/vod/20241108-1/fbdd7412ac03444203294b075f98b79c.jpg",
            "year": 2020
        },
        {
            "modified": {
                "time": "2024-11-08T05:31:27.000Z"
            },
            "_id": "28e5d9958f5359e46ea056ecb6684485",
            "name": "Chico Bon Bon: Ch\u00fa Kh\u1ec9 V\u00e0 Th\u1eaft L\u01b0ng \u0110\u1ed3 Ngh\u1ec1 (Ph\u1ea7n 2)",
            "slug": "chico-bon-bon-chu-khi-va-that-lung-do-nghe-phan-2",
            "origin_name": "Chico Bon Bon: Monkey With A Tool Belt (Season 2)",
            "poster_url": "https://phimimg.com/upload/vod/20241108-1/208df601c77efb63bff11c61f65e8db8.jpg",
            "thumb_url": "https://phimimg.com/upload/vod/20241108-1/bc9589852a1785bc739cb907eed43e79.jpg",
            "year": 2020
        },
        {
            "modified": {
                "time": "2024-11-08T05:31:15.000Z"
            },
            "_id": "c6d7395d35ba2f3d2ac7626e19e87d73",
            "name": "Chico Bon Bon: Ch\u00fa Kh\u1ec9 V\u00e0 Th\u1eaft L\u01b0ng \u0110\u1ed3 Ngh\u1ec1 (Ph\u1ea7n 1)",
            "slug": "chico-bon-bon-chu-khi-va-that-lung-do-nghe-phan-1",
            "origin_name": "Chico Bon Bon: Monkey With A Tool Belt (Season 1)",
            "poster_url": "https://phimimg.com/upload/vod/20241108-1/4c6d33339d134f6981a989812f2fa455.jpg",
            "thumb_url": "https://phimimg.com/upload/vod/20241108-1/e7ea3aa47784a2158f7ab3e6727a4397.jpg",
            "year": 2020
        },
        {
            "modified": {
                "time": "2024-11-08T05:30:54.000Z"
            },
            "_id": "fd22a77ffd3cc179b3c1407d6ea0637b",
            "name": "Gi\u1ea3i M\u00e3 Virus Corona",
            "slug": "giai-ma-virus-corona",
            "origin_name": "Coronavirus, Explained",
            "poster_url": "https://phimimg.com/upload/vod/20241108-1/2eea00948a78a7fc5713a6c1389cc704.jpg",
            "thumb_url": "https://phimimg.com/upload/vod/20241108-1/c1eb65f11205ef626596d749ca6943a3.jpg",
            "year": 2020
        },
        {
            "modified": {
                "time": "2024-11-08T05:30:38.000Z"
            },
            "_id": "ae7ec2b45beed17d0786e97d65a39e8d",
            "name": "Alexa & Katie (Ph\u1ea7n 4)",
            "slug": "alexa-katie-phan-4",
            "origin_name": "Alexa & Katie (Season 4)",
            "poster_url": "https://phimimg.com/upload/vod/20241107-1/27d3b60a251c5e56d6c3c762944c4cbb.jpg",
            "thumb_url": "https://phimimg.com/upload/vod/20241107-1/df9ff4f7c9e5faee24867b51ea810849.jpg",
            "year": 2020
        },
        {
            "modified": {
                "time": "2024-11-08T05:30:28.000Z"
            },
            "_id": "b3785677f32d08b06e8ee22caa4ffe69",
            "name": "Alexa & Katie (Ph\u1ea7n 2)",
            "slug": "alexa-katie-phan-2",
            "origin_name": "Alexa & Katie (Season 2)",
            "poster_url": "https://phimimg.com/upload/vod/20241107-1/20712ce179efb1d62c8423b144e506c0.jpg",
            "thumb_url": "https://phimimg.com/upload/vod/20241107-1/d4318633af224c2bca0a3bfa8e12b7db.jpg",
            "year": 2018
        },
        {
            "modified": {
                "time": "2024-11-08T05:30:16.000Z"
            },
            "_id": "2d1fc7492245772b81ed0555881afc31",
            "name": "Alexa & Katie (Ph\u1ea7n 1)",
            "slug": "alexa-katie-phan-1",
            "origin_name": "Alexa & Katie (Season 1)",
            "poster_url": "https://phimimg.com/upload/vod/20241107-1/dc2af074a79cab86a1c35c3a68f4b90d.jpg",
            "thumb_url": "https://phimimg.com/upload/vod/20241107-1/3747107a3ea6f977f438d31bd282c1a0.jpg",
            "year": 2018
        },
        {
            "modified": {
                "time": "2024-11-08T05:29:54.000Z"
            },
            "_id": "455b3cee95ff9200035018456ef17edc",
            "name": "C\u1eeda H\u00e0ng Nh\u00e0 B\u00ean: Ch\u01b0\u01a1ng K\u1ebf Ti\u1ebfp (Ph\u1ea7n 2)",
            "slug": "cua-hang-nha-ben-chuong-ke-tiep-phan-2",
            "origin_name": "Check The Store Next Door: The Next Chapter (Season 2)",
            "poster_url": "https://phimimg.com/upload/vod/20241107-1/6ab6308a02dc63a5cd559c60887ca333.jpg",
            "thumb_url": "https://phimimg.com/upload/vod/20241107-1/d55e7fb3cae1b6cce562562b604f5fe2.jpg",
            "year": 2020
        }
    ],
    "pagination": {
        "totalItems": 20645,
        "totalItemsPerPage": 10,
        "currentPage": 127,
        "totalPages": 2065
    }
}