{
    "status": true,
    "items": [
        {
            "modified": {
                "time": "2024-11-04T23:29:50.000Z"
            },
            "_id": "dbd18fe1f4137d8e0a0cfb72376985ef",
            "name": "V\u00f9ng \u0110\u1ea5t Qu\u1ef7 D\u1eef: B\u00f3ng T\u1ed1i V\u00f4 T\u1eadn",
            "slug": "vung-dat-quy-du-bong-toi-vo-tan",
            "origin_name": "RESIDENT EVIL: Infinite Darkness",
            "poster_url": "https://phimimg.com/upload/vod/20241104-1/720514adaeaba27a44b329e2be77d862.jpg",
            "thumb_url": "https://phimimg.com/upload/vod/20241104-1/2cf096b97d3a807ed8a9155498192f86.jpg",
            "year": 2021
        },
        {
            "modified": {
                "time": "2024-11-04T23:29:29.000Z"
            },
            "_id": "0fce7805546cf456c1d9e8b443e770f9",
            "name": "Ra \u0110i M\u00e3i M\u00e3i",
            "slug": "ra-di-mai-mai",
            "origin_name": "Gone for Good",
            "poster_url": "https://phimimg.com/upload/vod/20241104-1/f1781d8b8b314ebf28d2ee0a7537adc6.jpg",
            "thumb_url": "https://phimimg.com/upload/vod/20241104-1/10e0fcc821e1f664267b4ef6da4f37b7.jpg",
            "year": 2021
        },
        {
            "modified": {
                "time": "2024-11-04T23:29:05.000Z"
            },
            "_id": "52b3a8f0dfa223dc7e34522412cbd5dd",
            "name": "M\u00ecnh \u01a1i: S\u00e1u c\u00e2u chuy\u1ec7n t\u00ecnh \u0111\u00edch th\u1ef1c",
            "slug": "minh-oi-sau-cau-chuyen-tinh-dich-thuc",
            "origin_name": "My Love: Six Stories of True Love",
            "poster_url": "https://phimimg.com/upload/vod/20241104-1/f8c6dea6bed414a8f83f30853a5f930b.jpg",
            "thumb_url": "https://phimimg.com/upload/vod/20241104-1/a3d983c9e3a8884bcdd245aede68cac0.jpg",
            "year": 2021
        },
        {
            "modified": {
                "time": "2024-11-04T23:28:47.000Z"
            },
            "_id": "f7e7ab490f2e8981228ca95a758349ea",
            "name": "M\u00e3 Ngu\u1ed3n T\u1ec9 \u0110\u00f4",
            "slug": "ma-nguon-ti-do",
            "origin_name": "The Billion Dollar Code",
            "poster_url": "https://phimimg.com/upload/vod/20241104-1/356c3429d7a1a25387c0e8855a0e12ad.jpg",
            "thumb_url": "https://phimimg.com/upload/vod/20241104-1/e5ab43beba32fa010cff10df9016444b.jpg",
            "year": 2021
        },
        {
            "modified": {
                "time": "2024-11-04T23:28:32.000Z"
            },
            "_id": "00e9de08dddfe2521abb83e8fbc041c4",
            "name": "M\u1eadt danh: B\u00e1o \u0111\u1ed1m",
            "slug": "mat-danh-bao-dom",
            "origin_name": "Jaguar",
            "poster_url": "https://phimimg.com/upload/vod/20241104-1/71bfbc667c0a161a354f60f3730be60d.jpg",
            "thumb_url": "https://phimimg.com/upload/vod/20241104-1/0be89b0048264e9f8fd054de9c06d1a3.jpg",
            "year": 2021
        },
        {
            "modified": {
                "time": "2024-11-04T23:28:06.000Z"
            },
            "_id": "d903dac23bd0b6d6566a702fe7f96f84",
            "name": "Nh\u01b0 th\u1ec3 t\u00ecnh y\u00eau",
            "slug": "nhu-the-tinh-yeu",
            "origin_name": "Feels Like Ishq",
            "poster_url": "https://phimimg.com/upload/vod/20241104-1/2a15e4152739d40b437fae17fd456c7a.jpg",
            "thumb_url": "https://phimimg.com/upload/vod/20241104-1/c4529b12e6b82e9001334f87ff5704c4.jpg",
            "year": 2021
        },
        {
            "modified": {
                "time": "2024-11-04T23:27:43.000Z"
            },
            "_id": "019c4f590ec38a225750ba4a6d3dd3bb",
            "name": "Chuy\u1ec7n C\u00f3 Th\u1eadt",
            "slug": "chuyen-co-that",
            "origin_name": "True Story",
            "poster_url": "https://phimimg.com/upload/vod/20241104-1/7bd700da67d84ca919792271a1d45b82.jpg",
            "thumb_url": "https://phimimg.com/upload/vod/20241104-1/76f489f3ad179019433a96568263390d.jpg",
            "year": 2021
        },
        {
            "modified": {
                "time": "2024-11-04T20:55:01.000Z"
            },
            "_id": "c8235aaa18ac5ba6964391cc3f5cd9dd",
            "name": "\u0110\u1ed9i H\u00e0nh \u0110\u1ed9ng Li\u00eam Ch\u00ednh",
            "slug": "doi-hanh-dong-liem-chinh",
            "origin_name": "ICAC Investigators 2024",
            "poster_url": "https://phimimg.com/upload/vod/20241104-1/c5394fc16566d8f138e564cfaa81c198.jpg",
            "thumb_url": "https://phimimg.com/upload/vod/20241104-1/6d549a200d150414a3930e903f639cca.jpg",
            "year": 2024
        },
        {
            "modified": {
                "time": "2024-11-04T20:42:37.000Z"
            },
            "_id": "12f2b19fb872d854ceffd60459a20dee",
            "name": "Th\u1ea9m Ph\u00e1n \u0110\u1ebfn T\u1eeb \u0110\u1ecba Ng\u1ee5c",
            "slug": "tham-phan-den-tu-dia-nguc",
            "origin_name": "The Judge From Hell",
            "poster_url": "https://phimimg.com/upload/vod/20240923-1/4c333ba18cb9058f4d947579a3868ad6.jpg",
            "thumb_url": "https://phimimg.com/upload/vod/20240923-1/7e5fe43e4bfee1942ada75ab5073fad0.jpg",
            "year": 2024
        },
        {
            "modified": {
                "time": "2024-11-04T20:41:44.000Z"
            },
            "_id": "69a278df0e948bfa4fdfcfcbda822c73",
            "name": "Ti\u1ec3u N\u1eef Kh\u00f4ng Nghe L\u1ec7nh T\u01b0\u1edbng Qu\u00e2n",
            "slug": "tieu-nu-khong-nghe-lenh-tuong-quan",
            "origin_name": "General Order",
            "poster_url": "https://phimimg.com/upload/vod/20241030-1/9ea355a096b3a9392b9149c5dd87e21c.jpg",
            "thumb_url": "https://phimimg.com/upload/vod/20241030-1/0f079962f0b6ee52d82a23cba750515b.jpg",
            "year": 2024
        }
    ],
    "pagination": {
        "totalItems": 20645,
        "totalItemsPerPage": 10,
        "currentPage": 136,
        "totalPages": 2065
    }
}