{
    "status": true,
    "items": [
        {
            "modified": {
                "time": "2024-11-03T11:13:45.000Z"
            },
            "_id": "0ead0dd9d2b345a1fe8507437245d8f8",
            "name": "T\u00ean C\u1eadu L\u00e0 G\u00ec?",
            "slug": "ten-cau-la-gi",
            "origin_name": "Your Name",
            "poster_url": "https://phimimg.com/upload/vod/20241103-1/ee4e49dba0d9f22d984267d4c5bde014.jpg",
            "thumb_url": "https://phimimg.com/upload/vod/20241103-1/6742431b060f4d4a8d2220c0676c5363.jpg",
            "year": 2016
        },
        {
            "modified": {
                "time": "2024-11-03T07:12:18.000Z"
            },
            "_id": "5d28f6eb169ebb83117ffd6b05518fc4",
            "name": "Tuy\u1ec3n Th\u1ee7 V\u00f4 H\u00ecnh (Ph\u1ea7n 3)",
            "slug": "tuyen-thu-vo-hinh-phan-3",
            "origin_name": "Kuroko's Basketball (Season 3)",
            "poster_url": "https://phimimg.com/upload/vod/20241103-1/640f00d81671b2d87513dd2f413bc3ad.jpg",
            "thumb_url": "https://phimimg.com/upload/vod/20241103-1/a352106c3cbbd3f0fe042d37308e7ac1.jpg",
            "year": 2015
        },
        {
            "modified": {
                "time": "2024-11-03T07:12:11.000Z"
            },
            "_id": "1d60e7b563919b58c33441f825b64bd1",
            "name": "Tuy\u1ec3n Th\u1ee7 V\u00f4 H\u00ecnh (Ph\u1ea7n 2)",
            "slug": "tuyen-thu-vo-hinh-phan-2",
            "origin_name": "Kuroko's Basketball (Season 2)",
            "poster_url": "https://phimimg.com/upload/vod/20241103-1/9b22736870e2161e93949a6b0e2fa820.jpg",
            "thumb_url": "https://phimimg.com/upload/vod/20241103-1/fccf441b4b2567c5c64d5af4f6d1ede7.jpg",
            "year": 2013
        },
        {
            "modified": {
                "time": "2024-11-03T07:12:04.000Z"
            },
            "_id": "e778f5c84ed2c8a8dbc05418c90732e3",
            "name": "Tuy\u1ec3n Th\u1ee7 V\u00f4 H\u00ecnh (Ph\u1ea7n 1)",
            "slug": "tuyen-thu-vo-hinh-phan-1",
            "origin_name": "Kuroko's Basketball (Season 1)",
            "poster_url": "https://phimimg.com/upload/vod/20241103-1/b1ffad344b4ae228db6dc059ee61786f.jpg",
            "thumb_url": "https://phimimg.com/upload/vod/20241103-1/2a0c95758e0615c98a61fff5183daddc.jpg",
            "year": 2012
        },
        {
            "modified": {
                "time": "2024-11-02T21:15:15.000Z"
            },
            "_id": "fe39765e51d6dadb4eddba0dfe604086",
            "name": "\u1ed0ng K\u00ednh S\u00e1t Nh\u00e2n",
            "slug": "ong-kinh-sat-nhan",
            "origin_name": "Murder In The Lens",
            "poster_url": "https://phimimg.com/upload/vod/20241102-1/703f23315bbc7258bf2ff219652ac56f.jpg",
            "thumb_url": "https://phimimg.com/upload/vod/20241102-1/773020ef5a074b43d0a3fb5dad020612.jpg",
            "year": 2018
        },
        {
            "modified": {
                "time": "2024-11-02T18:02:17.000Z"
            },
            "_id": "694bb32b1ebbc8b4d3fc29bee5d1455c",
            "name": "Pha\u0301t Thanh Cu\u031b\u0301u Nu\u031bo\u031b\u0301c My\u0303 (Ph\u1ea7n 2)",
            "slug": "phat-thanh-cuu-nuoc-my-phan-2",
            "origin_name": "Pod Save America (Season 2)",
            "poster_url": "https://phimimg.com/upload/vod/20241102-1/549722d045f4fc1083957e4f1d1d6274.jpg",
            "thumb_url": "https://phimimg.com/upload/vod/20241102-1/6dbf6cf656acd9011c09491e80cc2852.jpg",
            "year": 2019
        },
        {
            "modified": {
                "time": "2024-11-02T18:02:06.000Z"
            },
            "_id": "8d618f48515500cd702cc305ee80acf1",
            "name": "Pha\u0301t Thanh Cu\u031b\u0301u Nu\u031bo\u031b\u0301c My\u0303 (Ph\u1ea7n 1)",
            "slug": "phat-thanh-cuu-nuoc-my-phan-1",
            "origin_name": "Pod Save America (Season 1)",
            "poster_url": "https://phimimg.com/upload/vod/20241102-1/e5aeade9875d0a054cbc65d60a3725b2.jpg",
            "thumb_url": "https://phimimg.com/upload/vod/20241102-1/a44a094571123188b4e7813a3e04dc2c.jpg",
            "year": 2018
        },
        {
            "modified": {
                "time": "2024-11-02T18:01:48.000Z"
            },
            "_id": "e38668311c8b85421dfdaf8e3c883588",
            "name": "Chu\u0301ng Ta La\u0300 Ba\u0301 Chu\u0309 Tha\u0300nh Pho\u0302\u0301 Na\u0300y",
            "slug": "chung-ta-la-ba-chu-thanh-pho-nay",
            "origin_name": "We Own This City",
            "poster_url": "https://phimimg.com/upload/vod/20241102-1/19fe6e1cd7da25c1f25d581fd8dc4742.jpg",
            "thumb_url": "https://phimimg.com/upload/vod/20241102-1/5ad2a2a08d707fa4746995ac4d8f6f9e.jpg",
            "year": 2022
        },
        {
            "modified": {
                "time": "2024-11-02T15:41:32.000Z"
            },
            "_id": "d140b46b9030bd231b950b3e6cf02ee4",
            "name": "Haikyu!!: Tr\u1eadn Chi\u1ebfn B\u00e3i Ph\u1ebf Li\u1ec7u",
            "slug": "haikyu-tran-chien-bai-phe-lieu",
            "origin_name": "HAIKYU!! The Dumpster Battle",
            "poster_url": "https://phimimg.com/upload/vod/20241102-1/e03d31bee2807351ff6af645e1447bc7.jpg",
            "thumb_url": "https://phimimg.com/upload/vod/20241102-1/61f3894bee443c5281ec28b4914bc65a.jpg",
            "year": 2024
        },
        {
            "modified": {
                "time": "2024-11-02T15:37:36.000Z"
            },
            "_id": "9c121513cf1e1f6de37b405531a60891",
            "name": "N\u1ed7i \u0110au Ng\u1ee7 Y\u00ean",
            "slug": "noi-dau-ngu-yen",
            "origin_name": "Sleeping Dogs",
            "poster_url": "https://phimimg.com/upload/vod/20241102-1/7530e3a756ce6e7fd0114a0adf794afc.jpg",
            "thumb_url": "https://phimimg.com/upload/vod/20241102-1/a51eafbe7a30f0f68705d09e561e54f4.jpg",
            "year": 2024
        }
    ],
    "pagination": {
        "totalItems": 20645,
        "totalItemsPerPage": 10,
        "currentPage": 144,
        "totalPages": 2065
    }
}