{
    "status": true,
    "items": [
        {
            "modified": {
                "time": "2024-11-08T05:34:30.000Z"
            },
            "_id": "62509b585210b8dd3e871ca3c23f186b",
            "name": "Ashley Garcia: Thi\u00ean T\u00e0i \u0110ang Y\u00eau (Gi\u00e1ng Sinh)",
            "slug": "ashley-garcia-thien-tai-dang-yeu-giang-sinh",
            "origin_name": "Ashley Garcia: Genius In Love (Xmas)",
            "poster_url": "https://phimimg.com/upload/vod/20241108-1/b2fbe43bd786f316da3ec51924b5e3d0.jpg",
            "thumb_url": "https://phimimg.com/upload/vod/20241108-1/163a908fb60886ba07098080f6c0a086.jpg",
            "year": 2020
        },
        {
            "modified": {
                "time": "2024-11-08T05:34:21.000Z"
            },
            "_id": "d5cc7743b1af1094b27afd0cccd8faee",
            "name": "Ashley Garcia: Thi\u00ean T\u00e0i \u0110ang Y\u00eau (Ph\u1ea7n 2)",
            "slug": "ashley-garcia-thien-tai-dang-yeu-phan-2",
            "origin_name": "Ashley Garcia: Genius In Love (Season 2)",
            "poster_url": "https://phimimg.com/upload/vod/20241108-1/760f5f394e296955efbd0ffacf112da6.jpg",
            "thumb_url": "https://phimimg.com/upload/vod/20241108-1/aac5149e41c2df29f16264728a158613.jpg",
            "year": 2020
        },
        {
            "modified": {
                "time": "2024-11-08T05:34:20.000Z"
            },
            "_id": "058d732557d3b439eb2ffdd074bbf347",
            "name": "C\u00f4ng T\u1ed1 Vi\u00ean Chuy\u1ec3n Sinh",
            "slug": "cong-to-vien-chuyen-sinh",
            "origin_name": "Again My Life",
            "poster_url": "https://phimimg.com/upload/vod/20240326-1/69f11b53acc62dadb3efdaa42910f681.jpg",
            "thumb_url": "https://phimimg.com/upload/vod/20240326-1/eb18766331e8be78527dd318d0282471.jpg",
            "year": 2022
        },
        {
            "modified": {
                "time": "2024-11-08T05:34:11.000Z"
            },
            "_id": "6c23fdb32b57c00398f53e90a3714bd3",
            "name": "Ashley Garcia: Thi\u00ean T\u00e0i \u0110ang Y\u00eau (Ph\u1ea7n 1)",
            "slug": "ashley-garcia-thien-tai-dang-yeu-phan-1",
            "origin_name": "Ashley Garcia: Genius In Love (Season 1)",
            "poster_url": "https://phimimg.com/upload/vod/20241108-1/5c4a3de3b9c8f3df6e9aaf30579a3967.jpg",
            "thumb_url": "https://phimimg.com/upload/vod/20241108-1/9e9013eb91965fe4db0249ac5dd23675.jpg",
            "year": 2020
        },
        {
            "modified": {
                "time": "2024-11-08T05:33:45.000Z"
            },
            "_id": "27c2eee02ba24911d6d88b05da1340f2",
            "name": "Th\u01b0 C\u1ee7a Fan Onepiece",
            "slug": "thu-cua-fan-onepiece",
            "origin_name": "One Piece Fan Letter",
            "poster_url": "https://phimimg.com/upload/vod/20241108-1/06dc91253f83e917fed02f73bf723eeb.jpg",
            "thumb_url": "https://phimimg.com/upload/vod/20241108-1/d0a56e150ee0d7fb985d842fa66b6ee0.jpg",
            "year": 2024
        },
        {
            "modified": {
                "time": "2024-11-08T05:33:33.000Z"
            },
            "_id": "72d77c3011a916a4403e8342c57c6782",
            "name": "Cu\u1ed9c \u0111\u1eddi phi th\u01b0\u1eddng c\u1ee7a Ibelin",
            "slug": "cuoc-doi-phi-thuong-cua-ibelin",
            "origin_name": "The Remarkable Life of Ibelin",
            "poster_url": "https://phimimg.com/upload/vod/20241108-1/9cc824e96f0ef59196221c50a8ea77b3.jpg",
            "thumb_url": "https://phimimg.com/upload/vod/20241108-1/50fefc984bf53aff67f0a4b5a4283381.jpg",
            "year": 2024
        },
        {
            "modified": {
                "time": "2024-11-08T05:33:25.000Z"
            },
            "_id": "2bee829bed9516889344bb4a675d7e38",
            "name": "Martha",
            "slug": "martha",
            "origin_name": "Martha",
            "poster_url": "https://phimimg.com/upload/vod/20241108-1/df74b5e967a8b7c74f9e70470f58eae0.jpg",
            "thumb_url": "https://phimimg.com/upload/vod/20241108-1/29b59fec3a6fd91d6e2e72c15a8e3772.jpg",
            "year": 2024
        },
        {
            "modified": {
                "time": "2024-11-08T05:33:08.000Z"
            },
            "_id": "988969200cb769535c9ff0ce49e36719",
            "name": "Beauty in Black",
            "slug": "beauty-in-black",
            "origin_name": "Beauty in Black",
            "poster_url": "https://phimimg.com/upload/vod/20241108-1/c43c284ed5da237850bd45b842da8743.jpg",
            "thumb_url": "https://phimimg.com/upload/vod/20241108-1/1813d0993e9734cc9d51f414a34ae8b6.jpg",
            "year": 2024
        },
        {
            "modified": {
                "time": "2024-11-08T05:32:53.000Z"
            },
            "_id": "da3c55e3be0a795729261bfd8776a627",
            "name": "T\u1edbi \u0111\u00e2y \u0111i, ng\u01b0\u1eddi anh em",
            "slug": "toi-day-di-nguoi-anh-em",
            "origin_name": "Go Ahead, Brother",
            "poster_url": "https://phimimg.com/upload/vod/20241108-1/4de96456c9887342c467daf0074569b2.jpg",
            "thumb_url": "https://phimimg.com/upload/vod/20241108-1/b9fa4aad2cc9c3fb84c64bf4c631ece2.jpg",
            "year": 2024
        },
        {
            "modified": {
                "time": "2024-11-08T05:32:28.000Z"
            },
            "_id": "e7e4f740f97a38c313a9abc2ec6ab85e",
            "name": "Th\u1ea7y Gi\u00e1o Iglesias (Ph\u1ea7n 3)",
            "slug": "thay-giao-iglesias-phan-3",
            "origin_name": "Mr. Iglesias (Season 3)",
            "poster_url": "https://phimimg.com/upload/vod/20241108-1/1b03d3481ed295452e0234d6620abc34.jpg",
            "thumb_url": "https://phimimg.com/upload/vod/20241108-1/30741c0921e1e1ee40a0ed2ca8a19414.jpg",
            "year": 2020
        }
    ],
    "pagination": {
        "totalItems": 20645,
        "totalItemsPerPage": 10,
        "currentPage": 126,
        "totalPages": 2065
    }
}